<svg width="1096" height="574.74" xmlns="http://www.w3.org/2000/svg" xmlns:xlink="http://www.w3.org/1999/xlink">
 <defs>
  <linearGradient y2="0" x2="0.49954" y1="1.00025" x1="0.49954" id="eb6c86d6-45fa-49e0-9a60-1b0612516196">
   <stop stop-opacity="0.25" stop-color="gray" offset="0"/>
   <stop stop-opacity="0.12" stop-color="gray" offset="0.54"/>
   <stop stop-opacity="0.1" stop-color="gray" offset="1"/>
  </linearGradient>
  <pattern viewBox="0 0 36.88 49.48" patternUnits="userSpaceOnUse" height="49.48" width="36.88" id="ad310e25-2b04-44c8-bb7b-982389166780">
   <rect id="svg_1" fill="none" height="49.48" width="36.88"/>
   <path id="svg_2" d="m4.33,13.19c4.5,0 4.51,-7 0,-7s-4.52,7 0,7z"/>
   <path id="svg_3" d="m4.51,17.16c4.51,0 4.52,-7 0,-7s-4.51,7 0,7z"/>
   <path id="svg_4" d="m4.51,20.94c4.51,0 4.52,-7 0,-7s-4.51,7 0,7z"/>
   <path id="svg_5" d="m3.38,24.72c4.51,0 4.51,-7 0,-7s-4.51,7 0,7z"/>
   <path id="svg_6" d="m1.09,28.29l0.2,0.38a3.52,3.52 0 0 0 4.78,1.25a3.58,3.58 0 0 0 1.26,-4.79l-0.19,-0.37a3.52,3.52 0 0 0 -4.79,-1.26a3.59,3.59 0 0 0 -1.26,4.79z"/>
   <path id="svg_7" d="m1.49,30.1l0.18,0.57a3.73,3.73 0 0 0 1.61,2.09a3.59,3.59 0 0 0 2.7,0.35a3.54,3.54 0 0 0 2.44,-4.31l-0.18,-0.56a3.68,3.68 0 0 0 -1.61,-2.1a3.61,3.61 0 0 0 -2.69,-0.35a3.56,3.56 0 0 0 -2.45,4.31z"/>
   <path id="svg_8" d="m1.58,33.88l0,0.38a3.54,3.54 0 0 0 3.5,3.5a3.56,3.56 0 0 0 3.5,-3.5l0,-0.38a3.54,3.54 0 0 0 -3.5,-3.5a3.57,3.57 0 0 0 -3.5,3.5z"/>
   <path id="svg_9" d="m4.89,42.3c4.51,0 4.51,-7 0,-7s-4.51,7 0,7z"/>
   <path id="svg_10" d="m1.77,42l0,0.19a3.54,3.54 0 0 0 3.5,3.5a3.56,3.56 0 0 0 3.5,-3.5l0,-0.19a3.54,3.54 0 0 0 -3.5,-3.5a3.56,3.56 0 0 0 -3.5,3.5z"/>
   <path id="svg_11" d="m6,49.29c4.5,0 4.51,-7 0,-7s-4.52,7 0,7z"/>
   <path id="svg_12" d="m10,14.14c4.5,0 4.51,-7 0,-7s-4.52,7 0,7z"/>
   <path id="svg_13" d="m6.59,20.94c4.51,0 4.52,-7 0,-7s-4.51,7 0,7z"/>
   <path id="svg_14" d="m8.48,27c4.51,0 4.51,-7 0,-7s-4.51,7 0,7z"/>
   <path id="svg_15" d="m8.48,29.26c4.51,0 4.51,-7 0,-7s-4.51,7 0,7z"/>
   <path id="svg_16" d="m14.91,33.79c4.5,0 4.51,-7 0,-7s-4.51,7 0,7z"/>
   <path id="svg_17" d="m9.81,38.52c4.5,0 4.51,-7 0,-7s-4.52,7 0,7z"/>
   <path id="svg_18" d="m10.56,45.13c4.51,0 4.51,-7 0,-7s-4.51,7 0,7z"/>
   <path id="svg_19" d="m10.56,49.48c4.51,0 4.51,-7 0,-7s-4.51,7 0,7z"/>
   <path id="svg_20" d="m12.83,18.12c2.57,0 2.58,-4 0,-4s-2.58,4 0,4z"/>
   <path id="svg_21" d="m13,20.39c2.57,0 2.58,-4 0,-4s-2.58,4 0,4z"/>
   <path id="svg_22" d="m13.1,21l0,0.19a2,2 0 0 0 4,0l0,-0.19a2,2 0 0 0 -4,0z"/>
   <path id="svg_23" d="m15.1,25.87c2.57,0 2.58,-4 0,-4s-2.58,4 0,4z"/>
   <path id="svg_24" d="m16.61,11.07a1,1 0 0 0 0,-2a1,1 0 0 0 0,2z"/>
   <path id="svg_25" d="m21.71,16.55a1,1 0 0 0 0,-2a1,1 0 0 0 0,2z"/>
   <path id="svg_26" d="m16.85,8.94l0,-0.38a1,1 0 0 0 -2,0l0,0.38a1,1 0 0 0 2,0z"/>
   <path id="svg_27" d="m16.48,4.78l0,-0.19a1,1 0 0 0 -2,0l0,0.19a1,1 0 0 0 2,0z"/>
   <path id="svg_28" d="m15.48,2a1,1 0 0 0 0,-2a1,1 0 0 0 0,2z"/>
   <path id="svg_29" d="m10.56,2a1,1 0 0 0 0,-2a1,1 0 0 0 0,2z"/>
   <path id="svg_30" d="m10.37,4.65a1,1 0 0 0 0,-2a1,1 0 0 0 0,2z"/>
   <path id="svg_31" d="m7.35,6.16a1,1 0 0 0 0,-2a1,1 0 0 0 0,2z"/>
   <path id="svg_32" d="m11.88,7.1l0.38,0a1,1 0 0 0 0,-2l-0.38,0a1,1 0 0 0 0,2z"/>
   <path id="svg_33" d="m13.28,11l0.57,1.32a1,1 0 0 0 1.37,0.36a1,1 0 0 0 0.36,-1.37l-0.58,-1.31a1,1 0 0 0 -1.37,-0.36a1,1 0 0 0 -0.35,1.36z"/>
   <path id="svg_34" d="m18.44,19.33l0,0.19a1,1 0 0 0 2,0l0,-0.19a1,1 0 0 0 -2,0z"/>
   <path id="svg_35" d="m20.68,24.93l0.19,0.38c0.57,1.15 2.3,0.14 1.72,-1l-0.19,-0.38c-0.57,-1.15 -2.3,-0.14 -1.72,1z"/>
   <path id="svg_36" d="m22.13,29.38a2.48,2.48 0 0 0 -0.84,1.86a1,1 0 0 0 2,0a0.56,0.56 0 0 1 0.25,-0.44a1,1 0 0 0 0,-1.42a1,1 0 0 0 -1.41,0z"/>
   <path id="svg_37" d="m20.32,33.41l-0.54,1.71c-0.38,1.23 1.55,1.76 1.93,0.53l0.54,-1.71c0.38,-1.23 -1.55,-1.76 -1.93,-0.53z"/>
   <path id="svg_38" d="m19.44,37l-0.19,0a1,1 0 0 0 0,2l0.19,0a1,1 0 0 0 0,-2z"/>
   <path id="svg_39" d="m17.64,41.5l-0.19,0.38c-0.58,1.15 1.15,2.16 1.72,1l0.19,-0.38c0.58,-1.15 -1.15,-2.16 -1.72,-1z"/>
   <path id="svg_40" d="m15.8,47.87l0,0.56a1,1 0 0 0 2,0l0,-0.56a1,1 0 0 0 -2,0z"/>
   <path id="svg_41" d="m14.34,49.43a1,1 0 0 0 0,-2a1,1 0 0 0 0,2z"/>
   <path id="svg_42" d="m14.34,41.31a1,1 0 0 0 0,-2a1,1 0 0 0 0,2z"/>
   <path id="svg_43" d="m17.13,36.47a2,2 0 0 0 1,-1.64a1,1 0 0 0 -2,0c0,-0.13 0.19,-0.2 0,-0.08c-1.15,0.58 -0.14,2.3 1,1.72z"/>
   <path id="svg_44" d="m17.37,31.29a1,1 0 0 0 0,-2a1,1 0 0 0 0,2z"/>
   <path id="svg_45" d="m18.12,28.46a1,1 0 0 0 0,-2a1,1 0 0 0 0,2z"/>
   <path id="svg_46" d="m19,24.94l0.19,-0.38c0.58,-1.15 -1.15,-2.16 -1.72,-1l-0.19,0.38c-0.58,1.15 1.15,2.16 1.72,1z"/>
   <path id="svg_47" d="m17.93,16a1,1 0 0 0 0,-2a1,1 0 0 0 0,2z"/>
   <path id="svg_48" d="m24.64,16.05l0.57,0.94a1,1 0 0 0 1.72,-1l-0.56,-0.99a1,1 0 0 0 -1.73,1l0,0.05z"/>
   <path id="svg_49" d="m34.88,29.72l0,0.19a1,1 0 0 0 2,0l0,-0.19a1,1 0 0 0 -2,0z"/>
   <path id="svg_50" d="m24,39.23a1,1 0 0 0 0,-2a1,1 0 0 0 0,2z"/>
   <path id="svg_51" d="m22.85,29a1,1 0 0 0 0,-2a1,1 0 0 0 0,2z"/>
   <path id="svg_52" d="m18.24,21.9l0.57,-0.56c0.93,-0.89 -0.48,-2.3 -1.41,-1.41l-0.58,0.56c-0.93,0.89 0.49,2.3 1.42,1.41z"/>
  </pattern>
  <linearGradient xlink:href="#eb6c86d6-45fa-49e0-9a60-1b0612516196" y2="559.69" x2="462.91" y1="660.68" x1="462.91" id="a964f849-fa65-4178-8cc4-fb8fb10b3617"/>
 </defs>
 <title>contact us</title>
 <g>
  <title>background</title>
  <rect fill="none" id="canvas_background" height="602" width="802" y="-1" x="-1"/>
 </g>
 <g>
  <title>Layer 1</title>
  <g stroke="null" id="svg_53" opacity="0.1">
   <ellipse stroke="null" id="svg_54" fill="#A8FFE9" ry="11.14605" rx="9.61015" cy="365.87395" cx="470.97967"/>
   <path stroke="null" id="svg_55" fill="#A8FFE9" d="m478.58841,318.18531a15.20059,13.46503 0 0 0 2.00986,-6.8148c0,-6.15651 -4.30683,-11.14605 -9.61859,-11.14605s-9.64393,5.0045 -9.64393,11.16101a15.20059,13.46503 0 0 0 2.00986,6.8148a15.71572,13.92134 0 0 0 0,13.62212a15.71572,13.92134 0 0 0 0,13.62212a15.14992,13.42014 0 0 0 -2.00986,6.8148c0,6.14903 4.30683,11.14605 9.61015,11.14605s9.61859,-4.99702 9.61859,-11.14605a15.14992,13.42014 0 0 0 -2.00986,-6.8148a15.71572,13.92134 0 0 0 0,-13.62212a15.71572,13.92134 0 0 0 0,-13.62212l0.03378,-0.01496z"/>
   <ellipse stroke="null" id="svg_56" fill="#A8FFE9" ry="11.14605" rx="9.61015" cy="297.76335" cx="470.97967"/>
   <ellipse stroke="null" id="svg_57" fill="#A8FFE9" ry="11.14605" rx="9.61015" cy="284.14123" cx="470.97967"/>
   <path stroke="null" id="svg_58" fill="#A8FFE9" d="m435.00495,190.91088a44.82485,39.70687 0 0 1 -3.58058,-4.66788l25.24987,-3.67296l-27.31039,0.17953a46.12534,40.85888 0 0 1 -0.84448,-32.31607l36.64186,16.83876l-33.77908,-22.00784a46.04934,40.79155 0 1 1 76.00294,45.63148a46.05778,40.79903 0 0 1 5.25265,7.43569l-32.79105,15.12571l34.95291,-10.39051a46.04934,40.79155 0 0 1 -7.42295,38.30052a46.04089,40.78407 0 1 1 -72.37169,0a46.04089,40.78407 0 0 1 0,-50.43401l0,-0.02244z"/>
   <path fill="#A8FFE9" stroke="null" id="svg_59" opacity="0.1" d="m517.23168,216.12788a45.82977,40.59706 0 0 1 -9.85505,25.217a46.04089,40.78407 0 1 1 -72.37169,0c-6.17313,-6.94197 82.22674,-29.79511 82.22674,-25.217z"/>
  </g>
  <g stroke="null" id="svg_60" opacity="0.1">
   <ellipse stroke="null" id="svg_61" fill="#A8FFE9" ry="9.58366" rx="8.09245" cy="331.80635" cx="611.2899"/>
   <path stroke="null" id="svg_62" fill="#A8FFE9" d="m617.68017,290.7938a12.77104,11.56411 0 0 0 1.68315,-5.85524c0,-5.29555 -3.62306,-9.59227 -8.08294,-9.59227s-8.09245,4.30533 -8.09245,9.59227a12.67595,11.478 0 0 0 1.69266,5.85524a13.21798,11.96881 0 0 0 0,11.7191a13.21798,11.96881 0 0 0 0,11.7191a12.67595,11.478 0 0 0 -1.69266,5.85524c0,5.29555 3.62306,9.59227 8.09245,9.59227s8.08294,-4.30533 8.08294,-9.59227a12.77104,11.56411 0 0 0 -1.68315,-5.85524a13.31308,12.05491 0 0 0 0,-11.7191a13.31308,12.05491 0 0 0 0,-11.7191z"/>
   <ellipse stroke="null" id="svg_63" fill="#A8FFE9" ry="9.58366" rx="8.09245" cy="273.21946" cx="611.2899"/>
   <ellipse stroke="null" id="svg_64" fill="#A8FFE9" ry="9.58366" rx="8.09245" cy="261.50037" cx="611.2899"/>
   <path stroke="null" id="svg_65" fill="#A8FFE9" d="m581.01216,181.30935a37.08643,33.58155 0 0 1 -3.01446,-4.01256l21.25338,-3.16011l-22.98408,0.15499a38.83615,35.16591 0 0 1 -0.74173,-27.8038l30.83879,14.49173l-28.44244,-18.94344a38.75056,35.08841 0 1 1 63.98835,39.26458a39.17848,35.47589 0 0 1 4.42184,6.39771l-27.57709,12.97625l29.41239,-8.93786a38.76007,35.09702 0 0 1 -6.24764,32.94436a38.74105,35.0798 0 1 1 -60.85978,0a38.74105,35.0798 0 0 1 0,-43.38047l-0.04755,0.00861z"/>
   <path fill="#A8FFE9" stroke="null" id="svg_66" opacity="0.1" d="m650.20212,202.99959a38.57939,34.93342 0 0 1 -8.29214,21.69023a38.74105,35.0798 0 1 1 -60.85978,0c-5.21112,-5.96718 69.15192,-25.6253 69.15192,-21.69023z"/>
  </g>
  <g stroke="null" id="svg_67" opacity="0.1">
   <ellipse stroke="null" id="svg_68" fill="#A8FFE9" ry="12.02933" rx="9.50604" cy="367.99066" cx="1051.51683"/>
   <path stroke="null" id="svg_69" fill="#A8FFE9" d="m1043.99052,316.52287a15.03592,14.53208 0 0 1 -1.98808,-7.35485c0,-6.64439 4.26018,-12.02933 9.51439,-12.02933s9.50604,5.38494 9.50604,12.02933a15.03592,14.53208 0 0 1 -1.98808,7.35485a15.54547,15.02456 0 0 1 0,14.70162a15.54547,15.02456 0 0 1 0,14.70162a14.9858,14.48364 0 0 1 1.98808,7.35485c0,6.63632 -4.26018,12.02933 -9.50604,12.02933s-9.51439,-5.39302 -9.51439,-12.02933a14.9858,14.48364 0 0 1 1.98808,-7.35485a15.54547,15.02456 0 0 1 0,-14.70162a15.54547,15.02456 0 0 1 0,-14.70162z"/>
   <ellipse stroke="null" id="svg_70" fill="#A8FFE9" ry="12.02933" rx="9.50604" cy="294.48255" cx="1051.51683"/>
   <ellipse stroke="null" id="svg_71" fill="#A8FFE9" ry="12.02933" rx="9.50604" cy="279.78093" cx="1051.51683"/>
   <path stroke="null" id="svg_72" fill="#A8FFE9" d="m1087.10183,179.16241a44.33925,42.85349 0 0 0 3.54179,-5.03779l-24.97633,-3.96403l27.01453,0.19376a45.62565,44.09679 0 0 0 0.83533,-34.87699l-36.24491,18.17317l33.41315,-23.75188a45.55047,44.02413 0 1 0 -75.17958,49.24761a45.55883,44.0322 0 0 0 -5.19574,8.02494l32.43581,16.32437l-34.57425,-11.21392a45.55047,44.02413 0 0 0 7.34254,41.3357a45.54212,44.01606 0 1 0 71.58767,0a45.54212,44.01606 0 0 0 0,-54.43072l0,-0.02422z"/>
   <path fill="#A8FFE9" stroke="null" id="svg_73" opacity="0.1" d="m1005.76588,206.37777a45.33329,43.81422 0 0 0 9.74829,27.21536a45.54212,44.01606 0 1 0 71.58767,0c6.10625,-7.49209 -81.33596,-32.15627 -81.33596,-27.21536z"/>
  </g>
  <g id="svg_74" opacity="0.1">
   <ellipse id="svg_75" fill="#A8FFE9" ry="11.13" rx="8.51" cy="324.26" cx="928.72"/>
   <path id="svg_76" fill="#A8FFE9" d="m922,276.63a13.43,13.43 0 0 1 -1.77,-6.8c0,-6.15 3.81,-11.14 8.5,-11.14s8.51,5 8.51,11.14a13.33,13.33 0 0 1 -1.78,6.8a13.9,13.9 0 0 1 0,13.61a13.9,13.9 0 0 1 0,13.61a13.33,13.33 0 0 1 1.78,6.8c0,6.15 -3.81,11.14 -8.51,11.14s-8.5,-5 -8.5,-11.14a13.43,13.43 0 0 1 1.77,-6.8a14,14 0 0 1 0,-13.61a14,14 0 0 1 0,-13.61z"/>
   <ellipse id="svg_77" fill="#A8FFE9" ry="11.13" rx="8.51" cy="256.22" cx="928.72"/>
   <ellipse id="svg_78" fill="#A8FFE9" ry="11.13" rx="8.51" cy="242.61" cx="928.72"/>
   <path id="svg_79" fill="#A8FFE9" d="m960.56,149.48a39,39 0 0 0 3.17,-4.66l-22.35,-3.67l24.17,0.18a40.84,40.84 0 0 0 0.78,-32.29l-32.43,16.83l29.91,-22a40.75,40.75 0 1 0 -67.29,45.6a41.2,41.2 0 0 0 -4.65,7.43l29,15.07l-30.87,-10.37a40.76,40.76 0 0 0 6.57,38.26a40.74,40.74 0 1 0 64,0a40.74,40.74 0 0 0 0,-50.38l-0.01,0z"/>
   <path fill="#A8FFE9" id="svg_80" opacity="0.1" d="m887.8,174.67a40.57,40.57 0 0 0 8.72,25.19a40.74,40.74 0 1 0 64,0c5.48,-6.93 -72.72,-29.76 -72.72,-25.19z"/>
  </g>
  <g stroke="null" id="svg_81" opacity="0.1">
   <ellipse stroke="null" id="svg_82" fill="#A8FFE9" ry="10.03954" rx="9.60897" cy="306.98045" cx="70.14251"/>
   <path stroke="null" id="svg_83" fill="#A8FFE9" d="m77.74187,264.02603a15.19873,12.12831 0 0 0 2.00961,-6.13827c0,-5.54533 -4.30631,-10.03954 -9.60897,-10.03954s-9.60897,4.49421 -9.60897,10.03954a15.19873,12.12831 0 0 0 2.00117,6.13827a15.76446,12.57975 0 0 0 0,12.2698a15.76446,12.57975 0 0 0 0,12.2698a15.13962,12.08114 0 0 0 -2.00117,6.13827c0,5.53859 4.29786,10.03954 9.60897,10.03954s9.6343,-4.48747 9.6343,-10.02607a15.14806,12.08788 0 0 0 -2.00961,-6.13827a15.7138,12.53932 0 0 0 0,-12.2698a15.7138,12.53932 0 0 0 0,-12.2698l-0.02533,-0.01348z"/>
   <ellipse stroke="null" id="svg_84" fill="#A8FFE9" ry="10.03954" rx="9.60897" cy="245.63143" cx="70.14251"/>
   <ellipse stroke="null" id="svg_85" fill="#A8FFE9" ry="10.03954" rx="9.60897" cy="233.36162" cx="70.14251"/>
   <path stroke="null" id="svg_86" fill="#A8FFE9" d="m34.18063,149.38657a45.87483,36.60728 0 0 1 -3.58014,-4.20448l25.25522,-3.30833l-27.33238,0.1954a46.11969,36.80268 0 0 1 -0.84437,-29.10794l36.64582,15.16712l-33.77495,-19.82305a46.03526,36.7353 0 1 1 75.99364,41.10149a46.05214,36.74877 0 0 1 5.252,6.69752l-32.79548,13.59044l34.95707,-9.35901a46.09436,36.78246 0 0 1 -7.43049,34.4983a46.03526,36.7353 0 1 1 -72.36283,0a46.03526,36.7353 0 0 1 0,-45.42725l0.01689,-0.02021z"/>
   <path fill="#A8FFE9" stroke="null" id="svg_87" opacity="0.1" d="m116.38041,172.10019a45.82416,36.56685 0 0 1 -9.85384,22.71363a46.03526,36.7353 0 1 1 -72.36283,0c-6.17237,-6.25282 82.21667,-26.83725 82.21667,-22.71363z"/>
  </g>
  <g stroke="null" id="svg_88" opacity="0.1">
   <ellipse stroke="null" id="svg_89" fill="#A8FFE9" ry="7.72804" rx="8.51" cy="327.66196" cx="171.44"/>
   <path stroke="null" id="svg_90" fill="#A8FFE9" d="m178.17,294.59037a13.43,9.32503 0 0 0 1.77,-4.72154c0,-4.27021 -3.8,-7.73499 -8.5,-7.73499s-8.51,3.47172 -8.51,7.73499a13.43,9.32503 0 0 0 1.78,4.72154a13.9,9.65138 0 0 0 0,9.45002a13.9,9.65138 0 0 0 0,9.45002a13.43,9.32503 0 0 0 -1.78,4.72154c0,4.27021 3.81,7.73499 8.51,7.73499s8.5,-3.47172 8.5,-7.73499a13.43,9.32503 0 0 0 -1.77,-4.72154a14,9.72081 0 0 0 0,-9.45002a14,9.72081 0 0 0 0,-9.45002z"/>
   <ellipse stroke="null" id="svg_91" fill="#A8FFE9" ry="7.72804" rx="8.51" cy="280.41882" cx="171.44"/>
   <ellipse stroke="null" id="svg_92" fill="#A8FFE9" ry="7.72804" rx="8.51" cy="270.96881" cx="171.44"/>
   <path stroke="null" id="svg_93" fill="#A8FFE9" d="m139.6,206.30459a40.21,27.91955 0 0 1 -3.17,-3.23564l22.35,-2.54824l-24.17,0.12498a40.84,28.35699 0 0 1 -0.78,-22.42035l32.43,11.6858l-29.91,-15.27556a40.75,28.2945 0 1 1 67.29,31.66207a40.12,27.85706 0 0 1 4.65,5.15897l-29,10.46376l30.93,-7.20729a40.76,28.30144 0 0 1 -6.57,26.56558a40.74,28.28756 0 1 1 -64,0a40.74,28.28756 0 0 1 0,-34.98103l-0.05,0.00694z"/>
   <path fill="#A8FFE9" stroke="null" id="svg_94" opacity="0.1" d="m212.36,223.7951a40.57,28.16952 0 0 1 -8.72,17.49051a40.74,28.28756 0 1 1 -64,0c-5.5,-4.8118 72.72,-20.66366 72.72,-17.49051z"/>
  </g>
  <ellipse id="svg_95" opacity="0.1" fill="#A8FFE9" ry="8.86" rx="548" cy="493.13" cx="548"/>
  <ellipse id="svg_96" opacity="0.1" fill="#A8FFE9" ry="8.86" rx="548" cy="565.88" cx="548"/>
  <ellipse id="svg_97" opacity="0.1" fill="#A8FFE9" ry="8.86" rx="548" cy="341.3" cx="548"/>
  <ellipse id="svg_98" opacity="0.1" fill="#A8FFE9" ry="8.86" rx="548" cy="417.21" cx="548"/>
  <path id="svg_99" opacity="0.1" fill="#84D3DB" d="m808.79,110.37a18.3,18.3 0 0 0 -10.6,1.16a15.65,15.65 0 0 1 -12.74,0a17.88,17.88 0 0 0 -15,0.29a9.24,9.24 0 0 1 -4.31,1.08c-6.08,0 -11.13,-6.12 -12.18,-14.19a11.88,11.88 0 0 0 3,-3.27c3.56,-5.74 9.07,-9.43 15.27,-9.43s11.64,3.64 15.2,9.32a11.68,11.68 0 0 0 10.09,5.54l0.16,0c4.89,-0.05 9.08,3.83 11.11,9.5z"/>
  <path id="svg_100" opacity="0.1" fill="#A8FFE9" d="m732.3,105.02l-9.82,6.22l6,-10.84a9.7,9.7 0 0 0 -5.94,-2.11l-0.16,0a11.35,11.35 0 0 1 -2,-0.15l-3.38,2.11l1.43,-2.6a11.79,11.79 0 0 1 -5.83,-4.42l-6,3.78l3.76,-6.84c-3.48,-4.18 -8.18,-6.74 -13.34,-6.74c-6.2,0 -11.71,3.68 -15.28,9.42a11.41,11.41 0 0 1 -10.09,5.44l-0.33,0c-6.84,0 -12.38,7.75 -12.38,17.31s5.54,17.32 12.38,17.32a9.39,9.39 0 0 0 4.31,-1.08a17.86,17.86 0 0 1 15,-0.3a15.55,15.55 0 0 0 12.74,0a17.92,17.92 0 0 1 14.86,0.29a9.3,9.3 0 0 0 4.26,1.06c6.84,0 12.38,-7.76 12.38,-17.32a21.93,21.93 0 0 0 -2.57,-10.55z"/>
  <path id="svg_101" opacity="0.1" fill="#A8FFE9" d="m357.26,152.96a12.84,12.84 0 0 0 -7.43,0.81a10.92,10.92 0 0 1 -8.91,0a12.48,12.48 0 0 0 -10.49,0.21a6.62,6.62 0 0 1 -3,0.75c-4.25,0 -7.79,-4.28 -8.53,-9.93a8.32,8.32 0 0 0 2.13,-2.29c2.49,-4 6.35,-6.6 10.69,-6.6s8.15,2.55 10.64,6.52a8.19,8.19 0 0 0 7.07,3.88l0.11,0c3.36,-0.02 6.29,2.7 7.72,6.65z"/>
  <path id="svg_102" opacity="0.1" fill="#A8FFE9" d="m398.21,184.23l-6.87,4.36l4.17,-7.59a6.75,6.75 0 0 0 -4.15,-1.48l-0.12,0a7.49,7.49 0 0 1 -1.42,-0.11l-2.33,1.48l1,-1.82a8.3,8.3 0 0 1 -4.08,-3.09l-4.17,2.64l2.64,-4.78a12.21,12.21 0 0 0 -9.34,-4.73c-4.34,0 -8.2,2.58 -10.69,6.6a8,8 0 0 1 -7.07,3.81l-0.23,0c-4.79,0 -8.67,5.42 -8.67,12.12s3.88,12.12 8.67,12.12a6.5,6.5 0 0 0 3,-0.76a12.5,12.5 0 0 1 10.48,-0.2a11.1,11.1 0 0 0 4.49,1a11,11 0 0 0 4.43,-0.94a12.54,12.54 0 0 1 10.4,0.2a6.48,6.48 0 0 0 3,0.74c4.78,0 8.66,-5.43 8.66,-12.12a15.33,15.33 0 0 0 -1.8,-7.45z"/>
  <path id="svg_103" opacity="0.1" fill="#A8FFE9" d="m269.59,183.37a12.82,12.82 0 0 1 7.42,0.81a10.94,10.94 0 0 0 8.92,0a12.52,12.52 0 0 1 10.49,0.2a6.47,6.47 0 0 0 3,0.76c4.25,0 7.79,-4.29 8.52,-9.94a8.15,8.15 0 0 1 -2.12,-2.29c-2.5,-4 -6.36,-6.59 -10.69,-6.59s-8.15,2.54 -10.65,6.52a8.19,8.19 0 0 1 -7.06,3.88l-0.11,0c-3.37,0.02 -6.31,2.73 -7.72,6.65z"/>
  <path id="svg_104" opacity="0.1" fill="#A8FFE9" d="m256.63,183.67l6.88,4.36l-4.18,-7.58a6.79,6.79 0 0 1 4.16,-1.49l0.11,0a8.52,8.52 0 0 0 1.43,-0.1l2.33,1.47l-1,-1.81a8.29,8.29 0 0 0 4.07,-3.09l4.17,2.64l-2.6,-4.79a12.2,12.2 0 0 1 9.34,-4.72c4.33,0 8.2,2.58 10.69,6.6a8,8 0 0 0 7.06,3.81l0.24,0c4.78,0 8.66,5.43 8.66,12.12s-3.88,12.12 -8.66,12.12a6.49,6.49 0 0 1 -3,-0.75a12.48,12.48 0 0 0 -10.49,-0.21a10.86,10.86 0 0 1 -4.48,1a11,11 0 0 1 -4.44,-0.94a12.52,12.52 0 0 0 -10.39,0.2a6.48,6.48 0 0 1 -3,0.74c-4.79,0 -8.67,-5.42 -8.67,-12.12a15.44,15.44 0 0 1 1.77,-7.46z"/>
  <path id="svg_105" stroke-width="4" stroke-miterlimit="10" stroke="#3f3d56" fill="none" d="m664.31,490.26c2.61,-4.84 -0.35,-10.76 -3.75,-15.07s-7.56,-8.8 -7.47,-14.29c0.13,-7.89 8.51,-12.56 15.2,-16.74a74.3,74.3 0 0 0 13.65,-11a20.13,20.13 0 0 0 4.19,-5.62c1.39,-3.08 1.35,-6.6 1.26,-10q-0.43,-16.89 -1.67,-33.76"/>
  <path id="svg_106" fill="#B1FFFF" d="m697.45,383.22a12.31,12.31 0 0 0 -6.15,-10.09l-2.76,5.45l0.09,-6.6a12.31,12.31 0 1 0 8.82,11.24z"/>
  <path id="svg_107" fill="#B1FFFF" d="m675.49,466.54a12.31,12.31 0 0 1 -23.24,-5a12,12 0 0 1 0.8,-5a12.32,12.32 0 0 1 23,0.13l-7.69,6.26l8.46,-2a12.24,12.24 0 0 1 -1.33,5.61z"/>
  <path id="svg_108" fill="#B1FFFF" d="m669.41,442.64a12.31,12.31 0 0 1 -3.9,-24.15l-0.07,5.07l2.79,-5.52l0,0a12.31,12.31 0 1 1 1.15,24.6l0.03,0z"/>
  <path id="svg_109" fill="#B1FFFF" d="m699.3,422.75a12.31,12.31 0 1 1 5.44,-23l-2.17,6l4.43,-4.38a12.31,12.31 0 0 1 -7.74,21.37l0.04,0.01z"/>
  <path id="svg_110" opacity="0.1" d="m696.79,386.5c-2.84,0.31 -5.6,1.19 -8.46,1.37s-6,-0.51 -7.78,-2.72a39.48,39.48 0 0 1 -2.28,-4a8.76,8.76 0 0 0 -3.1,-2.92a12.31,12.31 0 1 0 23,8.18c-0.45,0.01 -0.92,0.04 -1.38,0.09z"/>
  <path id="svg_111" opacity="0.1" d="m700.3,422.75a12.31,12.31 0 0 1 -11.71,-17.56a9.11,9.11 0 0 1 2.47,2.48a41.72,41.72 0 0 0 2.44,4.07c1.92,2.25 5.2,3 8.17,2.85s5.84,-1 8.8,-1.25c0.41,0 0.82,-0.06 1.24,-0.07a12.31,12.31 0 0 1 -11.41,9.48z"/>
  <path id="svg_112" opacity="0.1" d="m670.41,442.64a12.31,12.31 0 0 1 -11.81,-17.33a10,10 0 0 1 2.61,2.5a41.23,41.23 0 0 0 2.67,4.15c2.07,2.31 5.57,3.13 8.71,3s6,-0.81 9,-1a12.33,12.33 0 0 1 -11.18,8.68z"/>
  <path id="svg_113" opacity="0.1" d="m676.49,466.54a12.31,12.31 0 0 1 -23.24,-5a12,12 0 0 1 0.8,-5a12.29,12.29 0 0 1 2.7,2.41c1.17,1.42 1.94,3 3.3,4.37c2.51,2.47 6.58,3.49 10.19,3.58a51.7,51.7 0 0 0 6.25,-0.36z"/>
  <path id="svg_114" stroke-width="4" stroke-miterlimit="10" stroke="#3f3d56" fill="none" d="m54.31,418.26c2.61,-4.84 -0.35,-10.76 -3.75,-15.07s-7.56,-8.82 -7.47,-14.29c0.13,-7.89 8.51,-12.56 15.2,-16.74a74.3,74.3 0 0 0 13.65,-11a20.13,20.13 0 0 0 4.19,-5.62c1.39,-3.08 1.35,-6.6 1.26,-10q-0.44,-16.89 -1.67,-33.76"/>
  <path id="svg_115" fill="#B1FFFF" d="m87.45,311.22a12.31,12.31 0 0 0 -6.15,-10.09l-2.76,5.45l0.09,-6.6a12.31,12.31 0 1 0 8.82,11.24z"/>
  <path id="svg_116" fill="#B1FFFF" d="m65.49,394.54a12.31,12.31 0 0 1 -23.24,-5a12,12 0 0 1 0.8,-5a12.32,12.32 0 0 1 23,0.13l-7.69,6.26l8.46,-2a12.24,12.24 0 0 1 -1.33,5.61z"/>
  <path id="svg_117" fill="#B1FFFF" d="m59.41,370.64a12.31,12.31 0 0 1 -3.9,-24.15l-0.07,5.07l2.79,-5.52l0,0a12.31,12.31 0 1 1 1.15,24.6l0.03,0z"/>
  <path id="svg_118" fill="#B1FFFF" d="m89.3,350.75a12.31,12.31 0 1 1 5.44,-23l-2.17,6l4.43,-4.38a12.31,12.31 0 0 1 -7.74,21.37l0.04,0.01z"/>
  <path fill="#B1FFFF" id="svg_119" opacity="0.1" d="m85.79,314.5c-2.84,0.31 -5.6,1.19 -8.46,1.37s-6,-0.51 -7.78,-2.72a39.48,39.48 0 0 1 -2.28,-4a8.76,8.76 0 0 0 -3.1,-2.92a12.31,12.31 0 1 0 23,8.18c-0.45,0.01 -0.92,0.04 -1.38,0.09z"/>
  <path id="svg_120" opacity="0.1" d="m90.3,350.75a12.31,12.31 0 0 1 -11.71,-17.56a9.11,9.11 0 0 1 2.47,2.48a41.72,41.72 0 0 0 2.44,4.07c1.92,2.25 5.2,3 8.17,2.85s5.84,-1 8.8,-1.25c0.41,0 0.82,-0.06 1.24,-0.07a12.31,12.31 0 0 1 -11.41,9.48z"/>
  <path id="svg_121" opacity="0.1" d="m60.41,370.64a12.31,12.31 0 0 1 -11.81,-17.33a10,10 0 0 1 2.61,2.5a41.23,41.23 0 0 0 2.67,4.15c2.07,2.31 5.57,3.13 8.71,3s6,-0.81 9,-1a12.33,12.33 0 0 1 -11.18,8.68z"/>
  <path id="svg_122" opacity="0.1" d="m66.49,394.54a12.31,12.31 0 0 1 -23.24,-5a12,12 0 0 1 0.8,-5a12.29,12.29 0 0 1 2.7,2.41c1.17,1.42 1.94,3 3.3,4.37c2.51,2.47 6.58,3.49 10.19,3.58a51.7,51.7 0 0 0 6.25,-0.36z"/>
  <path id="svg_123" stroke-width="4" stroke-miterlimit="10" stroke="#3f3d56" fill="none" d="m460.52,335.89c-2.61,-4.83 0.35,-10.75 3.76,-15.06s7.55,-8.8 7.46,-14.29c-0.12,-7.9 -8.5,-12.56 -15.2,-16.74a74,74 0 0 1 -13.64,-11a19.78,19.78 0 0 1 -4.2,-5.61c-1.38,-3.09 -1.34,-6.6 -1.26,-10q0.45,-16.89 1.67,-33.76"/>
  <path id="svg_124" fill="#B1FFFF" d="m425.39,228.86a12.3,12.3 0 0 1 6.14,-10.09l2.76,5.45l-0.08,-6.6a12.62,12.62 0 0 1 4.05,-0.49a12.31,12.31 0 1 1 -12.87,11.73z"/>
  <path id="svg_125" fill="#B1FFFF" d="m448.34,312.18a12.31,12.31 0 1 0 -0.59,-9.91l7.69,6.26l-8.46,-2a12.24,12.24 0 0 0 1.36,5.65z"/>
  <path id="svg_126" fill="#B1FFFF" d="m453.42,288.28a12.31,12.31 0 0 0 3.91,-24.15l0.06,5.07l-2.79,-5.52l0,0a12.31,12.31 0 0 0 -12.9,11.69a12.16,12.16 0 0 0 0.53,4.2a12.3,12.3 0 0 0 11.19,8.71z"/>
  <path id="svg_127" fill="#B1FFFF" d="m423.54,268.37a12.31,12.31 0 1 0 -5.45,-23l2.18,6l-4.48,-4.29a12.21,12.21 0 0 0 -4,8.5a11.91,11.91 0 0 0 0.31,3.39a12.3,12.3 0 0 0 11.44,9.4z"/>
  <path id="svg_128" opacity="0.1" d="m428.05,232.14c2.84,0.31 5.6,1.19 8.45,1.37s6,-0.51 7.79,-2.72a39.4,39.4 0 0 0 2.27,-4a8.79,8.79 0 0 1 3.11,-2.92a12.31,12.31 0 1 1 -23,8.17c0.45,0.01 0.91,0.05 1.38,0.1z"/>
  <path id="svg_129" opacity="0.1" d="m424.54,268.37a12.32,12.32 0 0 0 11.71,-17.56a9.15,9.15 0 0 0 -2.48,2.48a41.72,41.72 0 0 1 -2.44,4.07c-1.91,2.25 -5.19,3 -8.16,2.85s-5.84,-1 -8.8,-1.25c-0.41,0 -0.83,-0.06 -1.24,-0.07a12.3,12.3 0 0 0 11.41,9.48z"/>
  <path id="svg_130" opacity="0.1" d="m454.42,288.28a12.3,12.3 0 0 0 11.81,-17.33a9.83,9.83 0 0 0 -2.6,2.5a41.23,41.23 0 0 1 -2.67,4.15c-2.08,2.31 -5.57,3.13 -8.72,3s-6,-0.81 -9,-1a12.3,12.3 0 0 0 11.18,8.68z"/>
  <path id="svg_131" opacity="0.1" d="m448.34,312.18a12.31,12.31 0 0 0 22.45,-10a11.82,11.82 0 0 0 -2.7,2.41c-1.17,1.42 -2,3 -3.3,4.37c-2.52,2.47 -6.58,3.49 -10.2,3.58a53.94,53.94 0 0 1 -6.25,-0.36z"/>
  <circle id="svg_132" fill="#3f3d56" r="99.96" cy="238.18" cx="779.73"/>
  <path id="svg_133" fill="#7DD8B5" d="m822.64,263.96c-3.48,-3.48 -11.85,-8.73 -16,-10.69c-4.79,-2.3 -6.55,-2.26 -9.94,0.19c-2.82,2 -4.65,3.93 -7.89,3.22s-9.66,-5.55 -15.87,-11.74s-11.03,-12.57 -11.72,-15.86s1.21,-5.08 3.23,-7.9c2.44,-3.39 2.51,-5.15 0.19,-9.94c-2,-4.15 -7.19,-12.5 -10.7,-16s-4.27,-2.73 -6.19,-2a35.8,35.8 0 0 0 -5.67,3c-3.48,2.33 -5.43,4.27 -6.8,7.19s-2.92,8.34 5.05,22.53a125.69,125.69 0 0 0 22.1,29.47l0,0l0,0a125.88,125.88 0 0 0 29.57,22.14c14.18,8 19.61,6.41 22.53,5.05s4.86,-3.29 7.18,-6.8a35.33,35.33 0 0 0 3,-5.67c0.66,-1.92 1.44,-2.7 -2.07,-6.19z"/>
  <path id="svg_134" opacity="0.1" d="m779.73,138.23a100,100 0 1 0 99.95,99.95a100,100 0 0 0 -99.95,-99.95zm0,186.62a86.67,86.67 0 1 1 86.67,-86.67a86.67,86.67 0 0 1 -86.67,86.67z"/>
  <circle id="svg_135" fill="#3f3d56" r="99.96" cy="390.01" cx="550.08"/>
  <path id="svg_136" fill="#7DD8B5" d="m606.93,359.81l-29.93,30.45a0.54,0.54 0 0 0 0,0.78l21,22.33a3.62,3.62 0 0 1 -2.55,6.17a3.64,3.64 0 0 1 -2.56,-1.06l-20.89,-22.25a0.57,0.57 0 0 0 -0.8,0l-5.09,5.14a22.37,22.37 0 0 1 -16,6.73a22.86,22.86 0 0 1 -16.28,-6.92l-4.89,-5a0.57,0.57 0 0 0 -0.8,0l-20.84,22.2a3.61,3.61 0 0 1 -5.11,0a3.6,3.6 0 0 1 0,-5.11l20.92,-22.28a0.6,0.6 0 0 0 0,-0.78l-29.93,-30.45a0.55,0.55 0 0 0 -0.94,0.39l0,60.93a8.92,8.92 0 0 0 8.89,8.89l97.87,0a8.92,8.92 0 0 0 8.89,-8.89l0,-60.88a0.55,0.55 0 0 0 -0.96,-0.39z"/>
  <path id="svg_137" fill="#7DD8B5" d="m550.08,400.87a15.14,15.14 0 0 0 10.92,-4.5l43.59,-44.37a8.7,8.7 0 0 0 -5.5,-2l-97.94,0a8.64,8.64 0 0 0 -5.5,2l43.6,44.37a15.08,15.08 0 0 0 10.83,4.5z"/>
  <path id="svg_138" opacity="0.1" d="m548.82,290.06a100,100 0 1 0 99.95,99.95a100,100 0 0 0 -99.95,-99.95zm0,186.62a86.67,86.67 0 1 1 86.67,-86.67a86.67,86.67 0 0 1 -86.67,86.67z"/>
  <circle id="svg_139" fill="#3f3d56" r="99.96" cy="315.36" cx="312.85"/>
  <path id="svg_140" fill="#7DD8B5" d="m312.85,267.53l-39.85,91.94l3.72,3.72l36.14,-15.94l36.14,15.94l3.72,-3.72l-39.87,-91.94z"/>
  <path id="svg_141" opacity="0.1" d="m312.85,215.37a100,100 0 1 0 99.95,100a100,100 0 0 0 -99.95,-100zm0,186.62a86.67,86.67 0 1 1 86.67,-86.62a86.67,86.67 0 0 1 -86.67,86.66l0,-0.04z"/>
  <path id="svg_142" fill="url(#eb6c86d6-45fa-49e0-9a60-1b0612516196)" d="m788.93,441.25q-1.36,-3.32 -2.79,-6.62a19.65,19.65 0 0 0 -3.41,-5.89a6.24,6.24 0 0 0 -2,-1.5a8.53,8.53 0 0 0 -2.61,-0.52a20.83,20.83 0 0 0 -4.1,-0.11c-0.53,-0.16 -1.13,-0.37 -1.72,-0.61a14.28,14.28 0 0 0 10.64,-13.25c0,-0.2 0,-0.41 0,-0.61a14.25,14.25 0 0 0 -14.19,-14.31a14,14 0 0 0 -7.45,2.13a13.37,13.37 0 0 0 -15,7.23a16.53,16.53 0 0 0 -5.1,12.3c0,0.21 0,0.43 0,0.63c0.26,7.77 5.28,14 11.62,14.63a6.66,6.66 0 0 0 -1.84,1.23c-1.94,1.87 -2.26,4.84 -2.47,7.54l-0.15,2l-3.36,1.2a0.62,0.62 0 0 0 -0.15,1.09l3.21,2.29c0,0.19 0,0.38 0,0.57s0,0.43 0.06,0.65a4.59,4.59 0 0 0 -1.24,1.77a8.18,8.18 0 0 0 -0.29,3.24l0.12,2.79a21.91,21.91 0 0 0 0.85,6.21c0.42,1.24 2.24,4.23 3.55,4.25c-1.21,5.5 -1.53,17.1 -1.53,17.1c-0.15,0.15 0.27,0.29 1,0.41c0.72,5.52 3.07,21 7.24,27.81a58.64,58.64 0 0 1 1.57,6.76s1.19,14.71 2.76,19.08c1.34,3.72 2.4,12.9 2.69,15.56a1.53,1.53 0 0 0 -1.11,1.14c-0.79,2.38 -5.91,6 -5.91,6a24.76,24.76 0 0 0 -4.42,2.83c-1.61,1.45 -1.55,2.76 5.6,1.94c13.8,-1.59 16.16,-6 16.16,-6s-0.22,-0.74 -0.55,-1.7a18.46,18.46 0 0 0 -1.81,-4.27c-0.2,-0.19 -0.4,0.13 -0.64,0.63a85.63,85.63 0 0 1 -0.94,-19.31s0.39,-6.76 -1.58,-11.53a21.83,21.83 0 0 1 0,-7.55c0.79,-3.18 -3.15,-18.69 -3.15,-18.69l-2.26,-11.42a3.28,3.28 0 0 1 0.63,1.33l0.06,0.23l0.06,0.33a0.62,0.62 0 0 0 0.16,0.31c1.54,6.4 5.76,24.13 5.76,26.73c0,3.18 3.94,11.13 3.94,11.13s1.57,13.12 4.33,18.28c2.1,3.93 2.15,9.69 2.05,12.23l0,0s-0.47,3.27 -1.26,4.06a9.66,9.66 0 0 0 -1.49,2.59l-0.09,0.19s-1.18,2.39 -0.39,2.79a19.37,19.37 0 0 0 9.46,1.19s1.58,-2 1.58,-2.78a12.52,12.52 0 0 0 -0.18,-1.42c-0.29,-1.88 -0.83,-4.84 -0.84,-4.87c0.33,-1.28 -1,-4.84 -1,-4.84l-0.4,-11.13a51.38,51.38 0 0 0 -2.76,-22.27s-2,-7.15 -1.57,-9.14s-0.79,-23.06 -0.79,-23.06l-0.12,-0.3a22.78,22.78 0 0 1 0.12,-4.47c0.39,-4.77 -1.18,-14.71 -1.58,-15.1a13.1,13.1 0 0 1 -0.56,-3.29c0.09,-0.83 0.36,-3.26 0.73,-6.28a112.91,112.91 0 0 0 11.62,-1a1.45,1.45 0 0 0 1,-0.4a1.4,1.4 0 0 0 0.23,-0.81c0.46,-5.99 -1.73,-11.81 -4,-17.35zm-7.93,12.61c0.41,-2.85 0.85,-5.61 1.29,-7.66l0.06,0.18a55.65,55.65 0 0 1 1.9,6.3a21.43,21.43 0 0 1 -3.25,1.18z"/>
  <path id="svg_143" fill="#be6f72" d="m750.37,486.05s2.36,21.23 7.47,29.48a57.21,57.21 0 0 1 1.57,6.68s1.18,14.54 2.75,18.86s2.75,16.12 2.75,16.12s5.5,6.28 7.47,1.18a82.82,82.82 0 0 1 -1.18,-20.44s0.39,-6.68 -1.57,-11.4a21.32,21.32 0 0 1 0,-7.46c0.78,-3.15 -3.15,-18.47 -3.15,-18.47l-3.14,-15.33l-12.97,0.78z"/>
  <path id="svg_144" fill="#ff6f61" d="m775.13,562.3s-2.36,4.32 -16.11,5.89c-7.14,0.81 -7.19,-0.48 -5.58,-1.92a24.9,24.9 0 0 1 4.4,-2.8s5.11,-3.53 5.89,-5.89s3.54,-0.39 3.54,-0.39c3.93,5.89 4.72,-1.58 5.5,-0.79a17.73,17.73 0 0 1 1.81,4.21c0.33,0.95 0.55,1.69 0.55,1.69z"/>
  <path id="svg_145" opacity="0.1" d="m775.13,562.3s-2.36,4.32 -16.11,5.89c-7.14,0.81 -7.19,-0.48 -5.58,-1.92c1.12,0.71 3.38,1 7.93,-0.83c6.55,-2.68 11.3,-4.23 13.21,-4.83c0.33,0.95 0.55,1.69 0.55,1.69z"/>
  <path id="svg_146" opacity="0.1" d="m771.2,537.93s0.39,-6.68 -1.57,-11.4a21.32,21.32 0 0 1 0,-7.46c0.78,-3.15 -3.15,-18.47 -3.15,-18.47l-3.14,-15.33l-2.72,0.16l3.11,15.17s3.93,15.32 3.15,18.47a21.32,21.32 0 0 0 0,7.46c2,4.72 1.57,11.4 1.57,11.4a82.82,82.82 0 0 0 1.18,20.44a3.44,3.44 0 0 1 -1.14,1.62c1.46,0.66 3,0.63 3.89,-1.62a82.82,82.82 0 0 1 -1.18,-20.44z"/>
  <path id="svg_147" fill="#3f3d56" d="m768.64,399.79a14,14 0 0 0 -7.42,2.11a13.35,13.35 0 0 0 -15,7.15a16.28,16.28 0 0 0 -5.09,12.16c0,8.36 5.63,15.13 12.57,15.13c5,0 9.38,-3.56 11.39,-8.71a13.8,13.8 0 0 0 3.54,0.46a14.15,14.15 0 0 0 0,-28.3l0.01,0z"/>
  <path id="svg_148" fill="#be6f72" d="m780.24,488.02l1.18,3.14s1.18,20.83 0.78,22.8s1.58,9 1.58,9a50.31,50.31 0 0 1 2.75,22l0.39,11s1.57,4.32 0.79,5.11s-6.71,-0.7 -6.71,-0.7s0.79,-8.25 -2,-13.36s-4.32,-18.08 -4.32,-18.08s-3.93,-7.86 -3.93,-11s-6.29,-28.69 -6.29,-28.69l15.78,-1.22z"/>
  <path id="svg_149" fill="#3f3d56" d="m749.58,487.63s0.4,-14.15 2,-18.47a29.33,29.33 0 0 0 1.75,-6.27s23.79,4.3 25.76,2.73c0,0 0.39,5.5 0.79,5.89s2,10.22 1.57,14.94s0,4.71 0,4.71s-16.12,2.36 -16.51,0s-1.57,-2.35 -1.57,-2.35s-14.57,-0.44 -13.79,-1.18z"/>
  <g id="svg_150" opacity="0.1">
   <path id="svg_151" d="m762.55,487.63s-9.94,-0.27 -12.94,-0.81c0,0.51 0,0.81 0,0.81c-0.78,0.78 13.76,1.18 13.76,1.18a1,1 0 0 1 0.54,0.22c-0.53,-1.4 -1.36,-1.4 -1.36,-1.4z"/>
   <path id="svg_152" d="m779.85,471.51c-0.4,-0.39 -0.79,-5.89 -0.79,-5.89a1.69,1.69 0 0 1 -0.67,0.24c0.14,1.66 0.41,4.21 0.67,4.47s2,10.22 1.57,14.94s0,4.71 0,4.71s-12.75,1.87 -15.84,0.62c0,0.17 0.09,0.36 0.12,0.56c0.39,2.36 16.51,0 16.51,0s-0.4,0 0,-4.71s-1.18,-14.54 -1.57,-14.94z"/>
   <path id="svg_153" fill="url(#ad310e25-2b04-44c8-bb7b-982389166780)" d="m762.55,487.63s-9.94,-0.27 -12.94,-0.81c0,0.51 0,0.81 0,0.81c-0.78,0.78 13.76,1.18 13.76,1.18a1,1 0 0 1 0.54,0.22c-0.53,-1.4 -1.36,-1.4 -1.36,-1.4z"/>
   <path id="svg_154" fill="url(#ad310e25-2b04-44c8-bb7b-982389166780)" d="m779.85,471.51c-0.4,-0.39 -0.79,-5.89 -0.79,-5.89a1.69,1.69 0 0 1 -0.67,0.24c0.14,1.66 0.41,4.21 0.67,4.47s2,10.22 1.57,14.94s0,4.71 0,4.71s-12.75,1.87 -15.84,0.62c0,0.17 0.09,0.36 0.12,0.56c0.39,2.36 16.51,0 16.51,0s-0.4,0 0,-4.71s-1.18,-14.54 -1.57,-14.94z"/>
  </g>
  <path id="svg_155" fill="#be6f72" d="m766.9,424.55a5.21,5.21 0 0 0 1.5,1.94a3.36,3.36 0 0 0 1.41,0.61c-0.88,0.51 -1.84,0.89 -2.72,1.4a48.36,48.36 0 0 0 -4,3a8.14,8.14 0 0 1 -4.59,1.78a5.62,5.62 0 0 0 0.64,-5.59a5.22,5.22 0 0 1 -0.7,-1.94c0,-1.13 1,-2 1.93,-2.6c0.75,-0.51 1.52,-1 2.3,-1.49c0.61,-0.38 1.53,-1.18 2.3,-1.15s0.86,0.71 1,1.41a11.09,11.09 0 0 0 0.93,2.63z"/>
  <path id="svg_156" opacity="0.1" d="m766.9,424.55a5.21,5.21 0 0 0 1.5,1.94a3.36,3.36 0 0 0 1.41,0.61c-0.88,0.51 -1.84,0.89 -2.72,1.4a48.36,48.36 0 0 0 -4,3a8.14,8.14 0 0 1 -4.59,1.78a5.62,5.62 0 0 0 0.64,-5.59a5.22,5.22 0 0 1 -0.7,-1.94c0,-1.13 1,-2 1.93,-2.6c0.75,-0.51 1.52,-1 2.3,-1.49c0.61,-0.38 1.53,-1.18 2.3,-1.15s0.86,0.71 1,1.41a11.09,11.09 0 0 0 0.93,2.63z"/>
  <circle id="svg_157" fill="#be6f72" r="9.04" cy="438.7" cx="776.11"/>
  <path id="svg_158" fill="#ff6f61" d="m788.88,567.01c0,0.79 -1.57,2.75 -1.57,2.75a19.46,19.46 0 0 1 -9.43,-1.18c-0.79,-0.39 0.39,-2.75 0.39,-2.75l0.09,-0.19a9.54,9.54 0 0 1 1.49,-2.56c0.78,-0.78 1.25,-4 1.25,-4c2.44,-4 6.77,1.73 6.77,1.73s0.55,3 0.84,4.82c0.1,0.65 0.17,1.18 0.17,1.38z"/>
  <path id="svg_159" opacity="0.1" d="m788.88,567.01c0,0.79 -1.57,2.75 -1.57,2.75a19.46,19.46 0 0 1 -9.43,-1.18c-0.79,-0.39 0.39,-2.75 0.39,-2.75l0.09,-0.19a19,19 0 0 0 8.56,1.76l1.79,-1.79c0.1,0.67 0.17,1.2 0.17,1.4z"/>
  <circle id="svg_160" fill="#be6f72" r="8.84" cy="419.83" cx="758.03"/>
  <path id="svg_161" fill="#be6f72" d="m750.9,437.51c-1.94,1.85 -2.26,4.78 -2.46,7.45l-0.3,3.91a19.72,19.72 0 0 0 -0.07,3.17c0,0.65 0.16,1.31 0.22,2s0.08,1.56 0.09,2.35l0,5.78a6.82,6.82 0 0 0 0.64,3.47a2.36,2.36 0 0 0 3,1.08a3.42,3.42 0 0 0 1.24,-1.92a29.85,29.85 0 0 0 2,-7.32c0.08,-0.87 0.09,-1.74 0.17,-2.61s0.23,-1.78 0.36,-2.66c0.56,-3.68 0.81,-7.4 1.06,-11.11c0.07,-1.1 1.06,-5.43 -0.38,-5.91c-0.7,-0.23 -2.15,0.49 -2.82,0.73a7.94,7.94 0 0 0 -2.75,1.59z"/>
  <path id="svg_162" opacity="0.1" d="m750.9,437.51c-1.94,1.85 -2.26,4.78 -2.46,7.45l-0.3,3.91a19.72,19.72 0 0 0 -0.07,3.17c0,0.65 0.16,1.31 0.22,2s0.08,1.56 0.09,2.35l0,5.78a6.82,6.82 0 0 0 0.64,3.47a2.36,2.36 0 0 0 3,1.08a3.42,3.42 0 0 0 1.24,-1.92a29.85,29.85 0 0 0 2,-7.32c0.08,-0.87 0.09,-1.74 0.17,-2.61s0.23,-1.78 0.36,-2.66c0.56,-3.68 0.81,-7.4 1.06,-11.11c0.07,-1.1 1.06,-5.43 -0.38,-5.91c-0.7,-0.23 -2.15,0.49 -2.82,0.73a7.94,7.94 0 0 0 -2.75,1.59z"/>
  <path id="svg_163" fill="#ff6f61" d="m769.23,425.53s-6.68,5.11 -10.61,6.29c0,0 -2.33,2.66 -2.73,3.3s-1.2,7.7 -2,9.28s-2.75,5.11 0,8.64c0,0 0.78,3.54 0.39,4.72s-1.82,5.5 -0.52,5.7s5.24,2.94 8.77,2.16s16.71,3 16.71,3s2.18,-20.25 3.76,-23.83l-3.54,-1.18s-9.82,-5.89 -3.93,-14.93c-0.01,0 -5.53,-1.18 -6.3,-3.15z"/>
  <path id="svg_164" fill="#3f3d56" d="m744.84,449.2l8.12,5.75a0.6,0.6 0 0 0 0.71,0l2.2,-1.65a0.62,0.62 0 0 0 0,-0.94l-6.25,-5.55a0.6,0.6 0 0 0 -0.61,-0.12l-4.01,1.44a0.61,0.61 0 0 0 -0.16,1.07z"/>
  <path id="svg_165" fill="#be6f72" d="m747.57,466.52a21.76,21.76 0 0 1 -0.85,-6.13l-0.12,-2.77a8,8 0 0 1 0.29,-3.2a5.23,5.23 0 0 1 3.37,-2.95a11.64,11.64 0 0 1 4.59,-0.33a1.18,1.18 0 0 1 0.59,0.16a1.1,1.1 0 0 1 0.32,0.54a3.62,3.62 0 0 1 0.18,2.89a3,3 0 0 1 -0.92,0.95c-1.09,0.78 -2.36,1.3 -3.39,2.15a1.23,1.23 0 0 0 -0.46,0.58a1.35,1.35 0 0 0 0,0.63a10.08,10.08 0 0 0 0.52,1.61a1.59,1.59 0 0 0 0.45,0.68c0.19,0.16 0.44,0.22 0.64,0.37c0.43,0.35 1.33,0.81 1.28,1.36c-0.15,2 -1.35,4.24 -1.82,6.22c-0.9,3.87 -4.09,-1.07 -4.67,-2.76z"/>
  <g id="svg_166" opacity="0.1">
   <path id="svg_167" d="m760.2,465.62l-0.22,0a6.73,6.73 0 0 0 2.57,0l0.25,0a9,9 0 0 0 -2.6,0z"/>
   <path id="svg_168" d="m780.83,444.2c-1.41,3.17 -3.49,20.34 -3.86,23.75c1.38,0.36 2.29,0.62 2.29,0.62s2.16,-20.2 3.74,-23.78l-2.17,-0.59z"/>
  </g>
  <path id="svg_169" fill="#be6f72" d="m776.42,438.98a3,3 0 0 0 1.29,1.95a17.31,17.31 0 0 1 2.29,2.32a16.43,16.43 0 0 1 2.27,4.55a55.75,55.75 0 0 1 1.89,6.22c-5,2.32 -10.68,2.21 -16,3.74a12.77,12.77 0 0 0 -6,3.55a8.27,8.27 0 0 0 -2.21,6.51a0.85,0.85 0 0 0 0.12,0.39a0.84,0.84 0 0 0 0.7,0.28a6,6 0 0 0 3.67,-1.26a17.46,17.46 0 0 0 2.81,-2.76a4.52,4.52 0 0 1 2,-1.48c2.89,-0.88 6,-0.83 9,-0.88a113.42,113.42 0 0 0 13.41,-1.06a1.08,1.08 0 0 0 1.2,-1.2c0.44,-5.9 -1.75,-11.66 -4,-17.13q-1.35,-3.29 -2.78,-6.55a19.4,19.4 0 0 0 -3.4,-5.82a6,6 0 0 0 -2,-1.48a8.46,8.46 0 0 0 -2.68,-0.5a19,19 0 0 0 -4.39,-0.08a9.36,9.36 0 0 0 -0.42,2.27c0.08,2.7 1.26,5.23 2.42,7.67c0.15,0.37 0.58,0.39 0.81,0.75z"/>
  <path id="svg_170" opacity="0.1" stroke-miterlimit="10" stroke="#000" fill="none" d="m760.41,444.04a7.33,7.33 0 0 0 -1,3.82a5.14,5.14 0 0 0 0.25,1.56a5.06,5.06 0 0 0 3.19,3"/>
  <path id="svg_171" fill="#3f3d56" d="m765.5,411.19a4.59,4.59 0 0 0 -1.45,0.23c-1.31,-2 -4.39,-3.38 -8,-3.38c-4.78,0 -8.65,2.47 -8.65,5.51s3.87,5.5 8.65,5.5a12.17,12.17 0 0 0 5.19,-1.1a4.71,4.71 0 1 0 4.24,-6.76l0.02,0z"/>
  <path id="svg_172" opacity="0.1" d="m765.89,419.44a4.7,4.7 0 0 1 -4.24,-2.67a12.17,12.17 0 0 1 -5.19,1.1c-4.77,0 -8.64,-2.46 -8.64,-5.5a3.31,3.31 0 0 1 0,-0.55a3.73,3.73 0 0 0 -0.44,1.73c0,3 3.87,5.5 8.65,5.5a12.17,12.17 0 0 0 5.19,-1.1a4.71,4.71 0 0 0 8.87,-1.17a4.69,4.69 0 0 1 -4.2,2.66z"/>
  <path id="svg_173" opacity="0.1" d="m746.23,411.37a13.35,13.35 0 0 1 15,-7.15a14.14,14.14 0 0 1 21.52,10.86c0,-0.39 0,-0.78 0,-1.18a14.14,14.14 0 0 0 -21.57,-12a13.35,13.35 0 0 0 -15,7.15a16.28,16.28 0 0 0 -5.09,12.16c0,0.4 0,0.79 0,1.18a16,16 0 0 1 5.14,-11.02z"/>
  <path id="svg_174" stroke-width="4" stroke-miterlimit="10" stroke="#3f3d56" fill="none" d="m836.39,414.37c2.61,-4.83 -0.35,-10.76 -3.76,-15.07s-7.55,-8.79 -7.46,-14.29c0.12,-7.89 8.5,-12.55 15.2,-16.74a73.9,73.9 0 0 0 13.64,-11a19.93,19.93 0 0 0 4.2,-5.61c1.38,-3.09 1.34,-6.6 1.26,-10q-0.44,-16.9 -1.67,-33.76"/>
  <path id="svg_175" fill="#A4FFFF" d="m870.52,307.3a12.29,12.29 0 0 0 -6.14,-10.08l-2.76,5.45l0.08,-6.6a12.08,12.08 0 0 0 -4.05,-0.49a12.31,12.31 0 1 0 12.87,11.72z"/>
  <path id="svg_176" fill="#B1FFFF" d="m846.57,390.63a12.31,12.31 0 1 1 0.59,-9.92l-7.69,6.26l8.46,-2a12.24,12.24 0 0 1 -1.36,5.66z"/>
  <path id="svg_177" fill="#B1FFFF" d="m840.49,366.72a12.31,12.31 0 0 1 -3.91,-24.15l-0.06,5.07l2.79,-5.51l0,0a12.32,12.32 0 0 1 12.87,11.73a12.3,12.3 0 0 1 -11.72,12.87l0.03,-0.01z"/>
  <path id="svg_178" fill="#A4FFFF" d="m872.37,346.84a12.31,12.31 0 1 1 5.45,-23l-2.18,6l4.48,-4.3a12.24,12.24 0 0 1 4,8.5a11.88,11.88 0 0 1 -0.31,3.39a12.31,12.31 0 0 1 -11.44,9.41z"/>
  <path fill="#B1FFFF" id="svg_179" opacity="0.1" d="m866.87,310.58c-2.84,0.32 -5.61,1.2 -8.46,1.38s-6,-0.51 -7.79,-2.73a38.2,38.2 0 0 1 -2.27,-4a8.85,8.85 0 0 0 -3.1,-2.92a12.31,12.31 0 1 0 23,8.17c-0.46,0.02 -0.92,0.05 -1.38,0.1z"/>
  <path fill="#B1FFFF" id="svg_180" opacity="0.1" d="m870.37,346.84a12.32,12.32 0 0 1 -11.71,-17.56a9.11,9.11 0 0 1 2.48,2.47a39.47,39.47 0 0 0 2.44,4.07c1.91,2.26 5.19,3 8.16,2.86s5.84,-1 8.8,-1.25c0.41,0 0.83,-0.07 1.24,-0.08a12.31,12.31 0 0 1 -11.41,9.49z"/>
  <path id="svg_181" opacity="0.1" d="m842.49,366.72a12.3,12.3 0 0 1 -11.81,-17.35a10.15,10.15 0 0 1 2.6,2.5c1,1.35 1.55,2.91 2.67,4.15c2.08,2.32 5.57,3.13 8.72,3.06s6,-0.82 9,-1.05a12.31,12.31 0 0 1 -11.18,8.69z"/>
  <path id="svg_182" opacity="0.1" d="m848.57,390.63a12.32,12.32 0 0 1 -22.45,-10a12.06,12.06 0 0 1 2.7,2.41c1.18,1.43 1.95,3 3.3,4.38c2.52,2.47 6.58,3.48 10.2,3.58a53.94,53.94 0 0 0 6.25,-0.37z"/>
  <path id="svg_183" stroke-width="4" stroke-miterlimit="10" stroke="#3f3d56" fill="none" d="m995.39,566.37c2.61,-4.83 -0.35,-10.76 -3.76,-15.07s-7.55,-8.79 -7.46,-14.29c0.12,-7.89 8.5,-12.55 15.2,-16.74a73.9,73.9 0 0 0 13.64,-11a19.93,19.93 0 0 0 4.2,-5.61c1.38,-3.09 1.34,-6.6 1.26,-10q-0.43,-16.9 -1.67,-33.76"/>
  <path id="svg_184" fill="#B1FFFF" d="m1028.52,459.3a12.29,12.29 0 0 0 -6.14,-10.08l-2.76,5.45l0.08,-6.6a12.08,12.08 0 0 0 -4,-0.49a12.31,12.31 0 1 0 12.87,11.72l-0.05,0z"/>
  <path id="svg_185" fill="#A4FFFF" d="m1008.57,542.63a12.31,12.31 0 1 1 0.59,-9.92l-7.69,6.26l8.46,-2a12.24,12.24 0 0 1 -1.36,5.66z"/>
  <path id="svg_186" fill="#B1FFFF" d="m1000.49,518.72a12.31,12.31 0 0 1 -3.91,-24.15l-0.06,5.07l2.79,-5.51l0,0a12.32,12.32 0 0 1 12.87,11.73a12.3,12.3 0 0 1 -11.72,12.87l0.03,-0.01z"/>
  <path id="svg_187" fill="#B1FFFF" d="m1030.37,498.84a12.31,12.31 0 1 1 5.45,-23l-2.18,6l4.48,-4.3a12.24,12.24 0 0 1 4,8.5a11.88,11.88 0 0 1 -0.31,3.39a12.31,12.31 0 0 1 -11.44,9.41z"/>
  <path id="svg_188" opacity="0.1" d="m1027.87,462.58c-2.84,0.32 -5.61,1.2 -8.46,1.38s-6,-0.51 -7.79,-2.73a38.2,38.2 0 0 1 -2.27,-4a8.85,8.85 0 0 0 -3.1,-2.92a12.31,12.31 0 1 0 23,8.17c-0.46,0.02 -0.92,0.05 -1.38,0.1z"/>
  <path id="svg_189" opacity="0.1" d="m1031.37,498.84a12.32,12.32 0 0 1 -11.71,-17.56a9.11,9.11 0 0 1 2.48,2.47a39.47,39.47 0 0 0 2.44,4.07c1.91,2.26 5.19,3 8.16,2.86s5.84,-1 8.8,-1.25c0.41,0 0.83,-0.07 1.24,-0.08a12.31,12.31 0 0 1 -11.41,9.49z"/>
  <path id="svg_190" opacity="0.1" d="m1001.49,518.72a12.3,12.3 0 0 1 -11.81,-17.35a10.15,10.15 0 0 1 2.6,2.5c1,1.35 1.55,2.91 2.67,4.15c2.08,2.32 5.57,3.13 8.72,3.06s6,-0.82 9,-1.05a12.31,12.31 0 0 1 -11.18,8.69z"/>
  <path fill="#7AD6CA" id="svg_191" opacity="0.1" d="m1007.57,542.63a12.32,12.32 0 0 1 -22.45,-10a12.06,12.06 0 0 1 2.7,2.41c1.18,1.43 2,3 3.3,4.38c2.52,2.47 6.58,3.48 10.2,3.58a53.94,53.94 0 0 0 6.25,-0.37z"/>
  <path id="svg_192" fill="url(#a964f849-fa65-4178-8cc4-fb8fb10b3617)" d="m478,425.28a9.81,9.81 0 0 0 -3.91,-7.92a11.5,11.5 0 0 0 -9.61,-11.28a11.48,11.48 0 0 0 -7.65,-8.55l0,0a9.76,9.76 0 0 0 -1.42,-0.33l-0.14,0l-0.25,0l-0.2,0l-0.22,0l-0.27,0l-0.61,0a11.26,11.26 0 0 0 -10.88,9.62c-3.51,-0.81 -6.72,0.24 -7.31,2.46a3,3 0 0 0 0.1,1.78c0.6,1.72 2.55,3.37 5.16,4.18l0.34,0.1l0.51,0.13l0.11,0l0,0a8.84,8.84 0 0 0 -0.84,3.79a8.74,8.74 0 0 0 4.71,7.8l-0.23,0.14a3.12,3.12 0 0 0 -0.76,1.06a15.86,15.86 0 0 0 -1.47,3.54c-0.25,1.06 -0.29,2.16 -0.6,3.21c-0.58,1.93 -2.06,3.56 -2.23,5.57c-0.08,0.9 0.07,2 -0.57,2.58a3.11,3.11 0 0 1 -0.51,0.36a4.13,4.13 0 0 0 -1.11,1.17a3.88,3.88 0 0 1 -0.78,1.12c-0.58,0.43 -1.53,0.39 -1.81,1.06s0.45,1.46 0.28,2.19s-0.79,0.87 -1.24,1.28a4.45,4.45 0 0 0 -1.07,2a6.56,6.56 0 0 1 -5.4,-1.38a10.09,10.09 0 0 1 0.56,2a8.76,8.76 0 0 0 -2.91,-1.46a9.19,9.19 0 0 1 -3.1,-2.3l1.66,-0.23l-7.33,-11.19l-2.17,-0.45l1.94,3.73a1.19,1.19 0 0 0 -0.66,0.79a3.39,3.39 0 0 0 -0.07,1.27a22.73,22.73 0 0 0 0.5,3l0.56,2.62c0.05,0.24 0.11,0.49 0.18,0.73a6.89,6.89 0 0 0 -2.17,0.24a18.88,18.88 0 0 0 -4.51,-1.07a2.5,2.5 0 0 0 -1,0a2.59,2.59 0 0 0 -0.95,0.77a30.76,30.76 0 0 0 -3.35,4.72c-4,6.86 -9.21,12.85 -14.14,19.05c-3.4,1.38 -6.83,2.69 -10.26,4l-7.38,2.82a11.19,11.19 0 0 1 -4.58,1c-0.7,0 -1.57,-0.15 -2,0.45a4.21,4.21 0 0 0 -0.45,1l-0.76,0.08l0,0a8.74,8.74 0 0 0 -1.77,-3.26a1.12,1.12 0 0 0 -0.83,0.64c-0.18,0.33 -0.29,0.69 -0.5,1c-0.39,0.58 -1.08,0.86 -1.57,1.35s-0.8,1.25 -1.34,1.75a5.3,5.3 0 0 1 -2.51,1a15.84,15.84 0 0 0 -3.93,1.49a6.33,6.33 0 0 1 -1.45,0.67a5.45,5.45 0 0 1 -1.71,0.06l-3.9,-0.29a3.08,3.08 0 0 0 -1.05,0.05a2,2 0 0 0 -1.24,2a3.15,3.15 0 0 0 1.24,2.15a7.94,7.94 0 0 0 2.22,1.15a65.15,65.15 0 0 0 10.4,3.08l0,0.79a17.75,17.75 0 0 0 8,1.9a1.24,1.24 0 0 0 0.6,-0.11a1.32,1.32 0 0 0 0.5,-0.78a32.17,32.17 0 0 0 1.56,-7.66l0,0a4,4 0 0 0 1.41,-0.36c1.34,-0.37 2.68,0.55 4.07,0.7c1.71,0.19 3.29,-0.81 4.91,-1.42l0.7,-0.23a7.68,7.68 0 0 1 -1.62,1.55c-0.67,0.48 -1.42,0.84 -2.07,1.34a14.26,14.26 0 0 1 -1.76,1.36a11.05,11.05 0 0 1 -1.35,0.52a8.91,8.91 0 0 0 -1.93,1a3.91,3.91 0 0 0 -1.31,1.28a1.92,1.92 0 0 0 -0.11,1.8a1.9,1.9 0 0 0 1.29,0.9a5.29,5.29 0 0 0 1.59,0c2.12,-0.16 4.23,-0.35 6.34,-0.54a16.92,16.92 0 0 0 2.65,-0.38c0.46,-0.11 0.92,-0.26 1.38,-0.39a12.31,12.31 0 0 1 2.41,-0.36a2,2 0 0 1 0.7,0.07c0.49,0.16 0.84,0.66 1.34,0.76a2,2 0 0 0 1,-0.13a22.3,22.3 0 0 1 4.69,-0.5c0.69,0 1.5,-0.17 1.82,-0.81s-0.26,-1.67 -0.52,-2.52a7.71,7.71 0 0 1 -0.22,-1.66a10.39,10.39 0 0 0 -1.16,-3.94a10.29,10.29 0 0 1 -0.87,-1.8a45.47,45.47 0 0 0 8.63,-4.38a15.43,15.43 0 0 1 4.92,-2.37a13.38,13.38 0 0 1 6.18,0.72a140.61,140.61 0 0 1 14.17,4.94c2.21,0.91 4.41,1.87 6.69,2.56a10.43,10.43 0 0 0 2.38,2.31a11,11 0 0 0 5.15,1.41a67.48,67.48 0 0 0 7.25,0.27a12.23,12.23 0 0 0 5.4,-1a5.55,5.55 0 0 0 1.13,-0.75a4.48,4.48 0 0 0 3.56,-1.31a8.63,8.63 0 0 0 2.71,-4.28c0.59,-2.28 0.14,-5 1.54,-6.82c0.37,-0.5 0.86,-0.9 1.23,-1.4a3.94,3.94 0 0 0 0.64,-2.31a0.47,0.47 0 0 1 0.06,-0.09a8.47,8.47 0 0 0 0.6,-2.3a13.14,13.14 0 0 1 0.65,-1.82a56.19,56.19 0 0 0 1.86,-5.39a31.49,31.49 0 0 0 0.86,-3.7c0.15,-1 0.24,-2 0.32,-3a18.63,18.63 0 0 1 0.91,-4.63a37.68,37.68 0 0 0 2.1,-11.08l0,-0.22a7.43,7.43 0 0 0 6.58,-7.56a7.89,7.89 0 0 0 -0.69,-3.23a10,10 0 0 0 1.34,-5.04zm-35.78,43.47c0.11,0.39 0.24,0.77 0.37,1.15c-0.59,-0.57 -1.16,-1.16 -1.75,-1.74c0.23,0.08 0.47,0.15 0.69,0.24a3.73,3.73 0 0 1 0.66,0.35l0.03,0zm-2.83,-1.92c-3.46,-3 -7.46,-5.33 -11,-8.24c1.93,0.95 3.81,2.06 5.67,3.12q3.31,1.89 6.71,3.63a5.49,5.49 0 0 1 -1.41,1.49l0.03,0zm1.47,-7.56l0.17,-0.17c0,0.43 0,0.82 0,1.19l-0.93,-0.32a8.28,8.28 0 0 0 0.73,-0.7l0.03,0zm-30.43,8.1a28.63,28.63 0 0 0 3.68,-5.25c1.37,2.39 3.6,4.12 5.49,6.13c-3.05,-0.39 -6.11,-0.72 -9.17,-0.88z"/>
  <polygon id="svg_193" fill="#2f2e41" points="415.35 438.25 417.53 438.69 424.96 449.68 421.69 450.12 415.35 438.25"/>
  <path id="svg_194" fill="#fbbebe" d="m362.49,482.83a42.78,42.78 0 0 0 2.18,5.67a54,54 0 0 0 7.25,-2.07a22.86,22.86 0 0 0 -1.51,-2a7.46,7.46 0 0 0 -2.05,-1.57a5.64,5.64 0 0 0 -2.49,0c-1.12,-0.03 -2.25,-0.01 -3.38,-0.03z"/>
  <path id="svg_195" fill="#2f2e41" d="m368.37,485.76a4.52,4.52 0 0 1 -2.48,-2.82a9.08,9.08 0 0 0 -1.89,-3.37a1.08,1.08 0 0 0 -0.84,0.63c-0.18,0.32 -0.29,0.68 -0.49,1c-0.4,0.57 -1.1,0.85 -1.6,1.33s-0.8,1.23 -1.34,1.72a5.32,5.32 0 0 1 -2.53,1a16.41,16.41 0 0 0 -4,1.47a6.9,6.9 0 0 1 -1.47,0.66a5.82,5.82 0 0 1 -1.72,0l-3.94,-0.28a3.08,3.08 0 0 0 -1,0a1.91,1.91 0 0 0 -1.25,2a3,3 0 0 0 1.25,2.12a8.3,8.3 0 0 0 2.24,1.14a65.9,65.9 0 0 0 10.56,3l0,0.78a18.28,18.28 0 0 0 8.05,1.87a1.36,1.36 0 0 0 0.6,-0.1a1.32,1.32 0 0 0 0.5,-0.78a31.2,31.2 0 0 0 1.65,-8.56a6.82,6.82 0 0 0 -0.17,-2.21c-0.22,-0.71 0.52,-0.41 -0.16,-0.69"/>
  <path id="svg_196" fill="#2f2e41" d="m443.93,470.91c-11.68,0.7 -23.22,-2.72 -34.92,-3.08a17.05,17.05 0 0 0 -4.34,0.27a21.87,21.87 0 0 0 -4.3,1.67c-6.27,2.92 -12.76,5.34 -19.24,7.75l-7.45,2.77a11.28,11.28 0 0 1 -4.61,1c-0.71,0 -1.58,-0.15 -2,0.44c-1.21,1.8 -0.64,4.43 0.16,6.45c0.26,0.65 0.7,1.36 1.4,1.43a4.07,4.07 0 0 0 1.42,-0.36c1.35,-0.36 2.7,0.55 4.1,0.7c1.72,0.18 3.32,-0.8 4.95,-1.4c2.7,-1 5.64,-1 8.48,-1.44c4.75,-0.79 9.16,-3 13.28,-5.51a15.5,15.5 0 0 1 4.95,-2.34a13.7,13.7 0 0 1 6.23,0.71a143,143 0 0 1 14.29,4.86a66.61,66.61 0 0 0 7.46,2.73a27,27 0 0 0 16.73,-1c1.87,-0.74 3.9,-2 4,-4.06c0.07,-1.15 -0.83,-2.16 -1.42,-3.15c-0.38,-0.63 -0.77,-1.26 -1.18,-1.87c-2,-2.9 -4.44,-6.78 -7.99,-6.57z"/>
  <path id="svg_197" opacity="0.1" d="m443.93,470.91c-11.68,0.7 -23.22,-2.72 -34.92,-3.08a17.05,17.05 0 0 0 -4.34,0.27a21.87,21.87 0 0 0 -4.3,1.67c-6.27,2.92 -12.76,5.34 -19.24,7.75l-7.45,2.77a11.28,11.28 0 0 1 -4.61,1c-0.71,0 -1.58,-0.15 -2,0.44c-1.21,1.8 -0.64,4.43 0.16,6.45c0.26,0.65 0.7,1.36 1.4,1.43a4.07,4.07 0 0 0 1.42,-0.36c1.35,-0.36 2.7,0.55 4.1,0.7c1.72,0.18 3.32,-0.8 4.95,-1.4c2.7,-1 5.64,-1 8.48,-1.44c4.75,-0.79 9.16,-3 13.28,-5.51a15.5,15.5 0 0 1 4.95,-2.34a13.7,13.7 0 0 1 6.23,0.71a143,143 0 0 1 14.29,4.86a66.61,66.61 0 0 0 7.46,2.73a27,27 0 0 0 16.73,-1c1.87,-0.74 3.9,-2 4,-4.06c0.07,-1.15 -0.83,-2.16 -1.42,-3.15c-0.38,-0.63 -0.77,-1.26 -1.18,-1.87c-2,-2.9 -4.44,-6.78 -7.99,-6.57z"/>
  <path id="svg_198" fill="#fbbebe" d="m384.92,483.37q2.74,0.93 5.53,1.72c1,-1.71 3,-2.9 3.43,-4.86a0.46,0.46 0 0 0 0,-0.26a0.48,0.48 0 0 0 -0.21,-0.19a10.48,10.48 0 0 0 -4.34,-1.27c-1.2,-0.07 -1.75,1.18 -2.29,2.06c-0.21,0.39 -1.63,2.99 -2.12,2.8z"/>
  <path id="svg_199" fill="#2f2e41" d="m387.48,482.15a4,4 0 0 1 -2.69,-1.77c-0.25,-0.45 -0.53,-1.06 -1.05,-1s-0.69,0.6 -0.8,1.07a30,30 0 0 1 -1.51,5.19a9.74,9.74 0 0 1 -3.23,4.25c-0.68,0.47 -1.43,0.82 -2.1,1.32a14.43,14.43 0 0 1 -1.77,1.34a10.51,10.51 0 0 1 -1.36,0.5a9.43,9.43 0 0 0 -1.94,1a3.85,3.85 0 0 0 -1.33,1.27a1.83,1.83 0 0 0 -0.1,1.77a1.89,1.89 0 0 0 1.29,0.88a5.44,5.44 0 0 0 1.61,0c2.13,-0.15 4.26,-0.34 6.39,-0.53a18.44,18.44 0 0 0 2.67,-0.37l1.39,-0.38a11.06,11.06 0 0 1 2.43,-0.36a1.89,1.89 0 0 1 0.71,0.07c0.49,0.16 0.84,0.65 1.35,0.75a2.26,2.26 0 0 0 1,-0.13a22.08,22.08 0 0 1 4.73,-0.49c0.7,0 1.52,-0.18 1.84,-0.8c0.4,-0.78 -0.26,-1.65 -0.53,-2.49a8,8 0 0 1 -0.22,-1.63a9.94,9.94 0 0 0 -1.17,-3.88c-0.54,-1 -1.28,-2.1 -0.9,-3.16a3,3 0 0 0 0.36,-1.09c-0.15,-1.72 -4.09,-1.11 -5.07,-1.33z"/>
  <path id="svg_200" fill="#fbbebe" d="m426.42,452.17a9.12,9.12 0 0 1 -4.66,-4.62c-0.19,-0.44 -0.35,-0.91 -0.54,-1.35a10.26,10.26 0 0 0 -2.78,-3.87a1.37,1.37 0 0 0 -1,-0.43a1.09,1.09 0 0 0 -0.75,0.81a3.09,3.09 0 0 0 -0.08,1.25a22.27,22.27 0 0 0 0.5,2.92l0.57,2.58a5.66,5.66 0 0 0 0.35,1.15a4,4 0 0 0 0.95,1.13c0.52,0.48 1.05,0.94 1.58,1.4a5.43,5.43 0 0 0 1,0.69a5.81,5.81 0 0 0 1.77,0.52a15.06,15.06 0 0 1 6.64,2.56s0,-1.73 0,-1.92a2.54,2.54 0 0 0 -0.5,-1.39a8.87,8.87 0 0 0 -3.05,-1.43z"/>
  <path id="svg_201" opacity="0.1" d="m426.42,452.17a9.12,9.12 0 0 1 -4.66,-4.62c-0.19,-0.44 -0.35,-0.91 -0.54,-1.35a10.26,10.26 0 0 0 -2.78,-3.87a1.37,1.37 0 0 0 -1,-0.43a1.09,1.09 0 0 0 -0.75,0.81a3.09,3.09 0 0 0 -0.08,1.25a22.27,22.27 0 0 0 0.5,2.92l0.57,2.58a5.66,5.66 0 0 0 0.35,1.15a4,4 0 0 0 0.95,1.13c0.52,0.48 1.05,0.94 1.58,1.4a5.43,5.43 0 0 0 1,0.69a5.81,5.81 0 0 0 1.77,0.52a15.06,15.06 0 0 1 6.64,2.56s0,-1.73 0,-1.92a2.54,2.54 0 0 0 -0.5,-1.39a8.87,8.87 0 0 0 -3.05,-1.43z"/>
  <ellipse id="svg_202" fill="#2f2e41" ry="2.86" rx="2.84" cy="429.57" cx="450.2"/>
  <path id="svg_203" fill="#2f2e41" d="m448.44,427.85a3.07,3.07 0 0 0 -2.24,0.32a3.11,3.11 0 0 0 -0.77,1.05a15.25,15.25 0 0 0 -1.48,3.48c-0.25,1 -0.29,2.13 -0.61,3.16c-0.58,1.9 -2.07,3.51 -2.24,5.49c-0.08,0.89 0.07,1.93 -0.58,2.53a3.68,3.68 0 0 1 -0.51,0.37a3.84,3.84 0 0 0 -1.12,1.15a3.77,3.77 0 0 1 -0.79,1.09c-0.58,0.43 -1.54,0.39 -1.82,1s0.45,1.44 0.28,2.16s-0.8,0.86 -1.25,1.26a4.37,4.37 0 0 0 -1.08,2a6.67,6.67 0 0 1 -5.44,-1.35a17.32,17.32 0 0 1 0.85,6.22a2.54,2.54 0 0 1 -0.5,1.92a34.64,34.64 0 0 1 6.67,1.16a4.6,4.6 0 0 0 2.91,0a4.86,4.86 0 0 0 1.34,-1.06c1.2,-1.22 2.46,-2.55 2.75,-4.24a24.91,24.91 0 0 0 0.05,-2.87a16.18,16.18 0 0 1 0.73,-3.49a41.53,41.53 0 0 0 1.27,-7.18c0.13,-1.5 1.43,-2.7 2.11,-4c1.28,-2.53 2.6,-5.16 2.69,-8c0.04,-0.92 -0.28,-2.07 -1.22,-2.17z"/>
  <path id="svg_204" opacity="0.1" d="m448.44,427.85a3.07,3.07 0 0 0 -2.24,0.32a3.11,3.11 0 0 0 -0.77,1.05a15.25,15.25 0 0 0 -1.48,3.48c-0.25,1 -0.29,2.13 -0.61,3.16c-0.58,1.9 -2.07,3.51 -2.24,5.49c-0.08,0.89 0.07,1.93 -0.58,2.53a3.68,3.68 0 0 1 -0.51,0.37a3.84,3.84 0 0 0 -1.12,1.15a3.77,3.77 0 0 1 -0.79,1.09c-0.58,0.43 -1.54,0.39 -1.82,1s0.45,1.44 0.28,2.16s-0.8,0.86 -1.25,1.26a4.37,4.37 0 0 0 -1.08,2a6.67,6.67 0 0 1 -5.44,-1.35a17.32,17.32 0 0 1 0.85,6.22a2.54,2.54 0 0 1 -0.5,1.92a34.64,34.64 0 0 1 6.67,1.16a4.6,4.6 0 0 0 2.91,0a4.86,4.86 0 0 0 1.34,-1.06c1.2,-1.22 2.46,-2.55 2.75,-4.24a24.91,24.91 0 0 0 0.05,-2.87a16.18,16.18 0 0 1 0.73,-3.49a41.53,41.53 0 0 0 1.27,-7.18c0.13,-1.5 1.43,-2.7 2.11,-4c1.28,-2.53 2.6,-5.16 2.69,-8c0.04,-0.92 -0.28,-2.07 -1.22,-2.17z"/>
  <path id="svg_205" fill="#2f2e41" d="m445.78,473.37c-2.43,-1.16 -4.21,-3.31 -6.18,-5.16c-3.75,-3.53 -8.34,-6 -12.29,-9.33c-2.62,-2.19 -5,-4.74 -7.83,-6.58a19.57,19.57 0 0 0 -8.39,-2.93a2.23,2.23 0 0 0 -1,0a2.3,2.3 0 0 0 -0.95,0.75a30.22,30.22 0 0 0 -3.39,4.65c-5,8.5 -12.11,15.64 -18,23.54a1.5,1.5 0 0 0 -0.29,0.56a1.39,1.39 0 0 0 0.22,0.87l1.2,2.34c0.67,1.32 1.75,2.85 3.19,2.59a3.49,3.49 0 0 0 1.67,-1.07l5.38,-5.15l5.64,-5.39c3.3,-3.15 6.66,-6.38 8.82,-10.42c1.68,2.92 4.67,4.83 6.71,7.5c0.78,1 1.42,2.13 2.12,3.21c1.11,1.72 2.38,3.34 3.64,5l6.47,8.25a12.38,12.38 0 0 0 3,3a11.45,11.45 0 0 0 5.19,1.39a68.59,68.59 0 0 0 7.31,0.26a12.6,12.6 0 0 0 5.45,-1a4.94,4.94 0 0 0 2.95,-4.39a6.44,6.44 0 0 0 -0.93,-2.73c-2.34,-4.17 -5.36,-7.69 -9.71,-9.76z"/>
  <ellipse id="svg_206" fill="#e8e8f0" ry="2.2" rx="2.19" cy="431.55" cx="451.95"/>
  <path id="svg_207" fill="#fbbebe" d="m451.47,429.9a4.21,4.21 0 0 1 0.24,3.16a12.82,12.82 0 0 1 -1.41,2.91a13.85,13.85 0 0 1 -1.83,2.6c3.38,0.16 6.65,-1.16 9.62,-2.76c2.4,-1.29 4.79,-2.88 6.07,-5.29a2.8,2.8 0 0 1 -2.24,-0.42a8,8 0 0 1 -1.71,-1.59l-1.69,-1.9a7.61,7.61 0 0 1 -1,-1.37a3.78,3.78 0 0 1 -0.45,-2.21a12.87,12.87 0 0 1 -2.24,1.86c-1.21,0.79 -2.54,1.36 -3.76,2.14c-0.42,0.28 -1.38,0.72 -1.13,1.28s1.19,0.99 1.53,1.59z"/>
  <path id="svg_208" opacity="0.1" d="m451.47,429.9a4.21,4.21 0 0 1 0.24,3.16a12.82,12.82 0 0 1 -1.41,2.91a13.85,13.85 0 0 1 -1.83,2.6c3.38,0.16 6.65,-1.16 9.62,-2.76c2.4,-1.29 4.79,-2.88 6.07,-5.29a2.8,2.8 0 0 1 -2.24,-0.42a8,8 0 0 1 -1.71,-1.59l-1.69,-1.9a7.61,7.61 0 0 1 -1,-1.37a3.78,3.78 0 0 1 -0.45,-2.21a12.87,12.87 0 0 1 -2.24,1.86c-1.21,0.79 -2.54,1.36 -3.76,2.14c-0.42,0.28 -1.38,0.72 -1.13,1.28s1.19,0.99 1.53,1.59z"/>
  <path id="svg_209" fill="#e8e8f0" d="m451.51,430.23a2.85,2.85 0 0 0 0,3.3c0.1,0.12 0.46,0.87 0.61,0.88a0.55,0.55 0 0 0 0.38,-0.2a25.1,25.1 0 0 0 2.14,-2.55a4.76,4.76 0 0 1 2.72,-1.78a5.88,5.88 0 0 1 3.75,1.17a3.56,3.56 0 0 1 1.29,1a3.49,3.49 0 0 1 0.42,1.43a68.9,68.9 0 0 1 0.38,9.09a35.82,35.82 0 0 1 -0.43,6.55c-0.22,1.11 -0.54,2.2 -0.69,3.33a21.24,21.24 0 0 0 -0.14,3l0,4.18a11,11 0 0 0 0.16,2.29c0.2,0.91 0.63,1.76 0.92,2.65a17.33,17.33 0 0 1 0.61,3.13l0.57,4.32c0.18,1.36 0.32,2.85 -0.51,4c-0.37,0.49 -0.86,0.89 -1.24,1.38c-1.41,1.84 -1,4.47 -1.55,6.72a8.38,8.38 0 0 1 -2.74,4.2a4.53,4.53 0 0 1 -3.61,1.29c-1.76,-0.33 -2.81,-2.16 -3.29,-3.89s-0.65,-3.61 -1.69,-5.07a13.45,13.45 0 0 0 -3.34,-2.79a5.77,5.77 0 0 1 -2.61,-3.39c-0.11,-0.63 0,-1.28 -0.11,-1.92a4.53,4.53 0 0 0 -2.79,-3.67c-0.9,-0.35 -2,-0.48 -2.52,-1.3a6.07,6.07 0 0 0 2.63,-3.53a18.13,18.13 0 0 0 0.64,-4.46l0.3,-5c0.14,-2.25 0.2,-4.47 1.19,-6.49c0.44,-0.9 1,-1.75 1.45,-2.64a28.66,28.66 0 0 0 1.55,-3.87c0.72,-2.06 1.44,-4.12 2.08,-6.2a11.68,11.68 0 0 1 1.14,-2.89c0.54,-0.94 1.32,-2.07 2.33,-2.27z"/>
  <path id="svg_210" fill="#2f2e41" d="m440.36,462.87l1.33,0l0.28,-2a4.17,4.17 0 0 1 0.28,-1.17a7,7 0 0 1 0.77,-1.12c1.3,-1.85 1.21,-4.3 1.53,-6.55a33.33,33.33 0 0 1 2.92,-8.56l2.58,-5.75a7.94,7.94 0 0 0 0.56,-1.47a8.82,8.82 0 0 0 0.16,-1.7c0,-0.89 0.28,-4.13 0.31,-5c0,-0.33 -0.73,-0.15 -0.88,-0.44c-0.32,-0.64 -0.76,1.09 -1.37,1.47a3.36,3.36 0 0 0 -1.19,1.74c-0.56,1.44 -0.9,3 -1.42,4.43a9.05,9.05 0 0 1 -2.41,3.92c-0.53,0.46 -1.14,0.83 -1.64,1.33c-1.6,1.58 -1.76,4.09 -1.81,6.35c-0.04,1.38 -0.3,14.52 0,14.52z"/>
  <path id="svg_211" fill="#2f2e41" d="m459.5,427.84a4.54,4.54 0 0 0 -2.37,3.25a16.44,16.44 0 0 1 -1.2,4c-1.62,2.82 -5.75,3.64 -6.9,6.69a12.3,12.3 0 0 0 -0.46,3.15c-0.2,2.19 -0.92,4.3 -1.14,6.48a28.87,28.87 0 0 0 0.12,5.09l1.45,17.22a23,23 0 0 1 -0.43,7.58a7.3,7.3 0 0 0 4.34,-0.72c1.35,-0.62 2.59,-1.47 3.9,-2.19c2.24,-1.24 4.72,-2.11 6.69,-3.76a4.09,4.09 0 0 0 0.9,-1a8.65,8.65 0 0 0 0.6,-2.26a12.2,12.2 0 0 1 0.65,-1.78a52.45,52.45 0 0 0 1.88,-5.32a30.53,30.53 0 0 0 0.86,-3.64c0.16,-1 0.25,-2 0.33,-3a17.6,17.6 0 0 1 0.92,-4.55a36.65,36.65 0 0 0 2.11,-10.92a5.71,5.71 0 0 0 -0.11,-1.6a8.56,8.56 0 0 0 -0.88,-1.83c-0.6,-1.13 -1,-2.37 -1.52,-3.52a17.31,17.31 0 0 0 -5.91,-6.21c-1.16,-0.79 -2.52,-1.63 -3.83,-1.16z"/>
  <path id="svg_212" fill="#fbbebe" d="m429.29,455.94a10.43,10.43 0 0 1 -2.75,-2.09c-0.36,-0.42 -0.66,-0.89 -1,-1.31a6.81,6.81 0 0 0 -3.46,-2a16.9,16.9 0 0 0 -4,-0.39a7.26,7.26 0 0 0 -2.67,0.32a2.72,2.72 0 0 0 -1.77,1.9a3.15,3.15 0 0 0 1.35,2.8a6.36,6.36 0 0 0 2.69,1.3a21.5,21.5 0 0 0 2.43,0.29c4.78,0.5 9.05,3.1 13.24,5.47q5.52,3.14 11.26,5.84a23.4,23.4 0 0 0 0.19,-3.45c0,-0.86 -0.07,-2.18 -0.88,-2.69a17.66,17.66 0 0 0 -3.58,-1.07a56.34,56.34 0 0 1 -7.21,-2.92c-1.32,-0.57 -2.59,-1.27 -3.84,-2z"/>
  <ellipse id="svg_213" fill="#fbbebe" ry="8.57" rx="8.52" cy="420.35" cx="450.2"/>
  <path id="svg_214" fill="#2f2e41" d="m461.93,437.55a13.66,13.66 0 0 0 -1.65,3.09c-1,2.16 -2.7,4 -3.53,6.29s-0.84,5.23 -2.55,7.1a2.49,2.49 0 0 0 -0.75,1.08a5.16,5.16 0 0 1 -0.08,0.78c-0.25,0.68 -1.36,0.71 -1.57,1.41c-0.06,0.2 0,0.42 -0.1,0.62c-0.17,0.45 -0.77,0.52 -1.16,0.79c-0.83,0.56 -0.66,1.86 -1.25,2.67a2.25,2.25 0 0 1 -2.13,0.75a7.5,7.5 0 0 1 -2.21,-0.83a2.13,2.13 0 0 0 -0.8,-0.25a1.65,1.65 0 0 0 -0.92,0.32a5.67,5.67 0 0 0 -2.3,4.85a15.84,15.84 0 0 0 1.32,5.43a2.18,2.18 0 0 0 0.43,0.81a1.91,1.91 0 0 0 2.12,0.16a10,10 0 0 1 2.07,-0.93c1.32,-0.24 2.61,0.67 3.95,0.59a5.49,5.49 0 0 0 2.66,-1.17a14.7,14.7 0 0 0 3.58,-3c0.58,-0.77 1,-1.64 1.52,-2.46a31.54,31.54 0 0 1 2.15,-2.87l4.92,-6a13.83,13.83 0 0 0 1.32,-1.82a12.83,12.83 0 0 0 1,-2.75a21.07,21.07 0 0 0 1,-4.89a18.79,18.79 0 0 0 -0.36,-4.1a14.49,14.49 0 0 0 -1,-3.91c-1.07,-2.26 -3.67,-4.1 -5.68,-1.76z"/>
  <path id="svg_215" fill="#f86d70" d="m479.05,426.37a9.6,9.6 0 0 0 -3.94,-7.8a11.41,11.41 0 0 0 -9.69,-11.11a11.07,11.07 0 0 0 -21.81,0.59c-3.54,-0.8 -6.78,0.24 -7.37,2.42s1.91,5 5.64,6a10.51,10.51 0 0 0 3.62,0.36a11.08,11.08 0 0 0 7.62,4.75a11.37,11.37 0 0 0 8.32,8.58a9.55,9.55 0 0 0 2.57,3.55c0,0.27 0,0.55 0,0.83a7.21,7.21 0 1 0 14.42,0a7.7,7.7 0 0 0 -0.69,-3.19a9.64,9.64 0 0 0 1.31,-4.98z"/>
  <path id="svg_216" opacity="0.1" d="m438.64,410.93c0.59,-2.18 3.83,-3.22 7.37,-2.42a11.26,11.26 0 0 1 11,-9.48l0.73,0a10.84,10.84 0 0 0 -3.14,-0.47a11.26,11.26 0 0 0 -11,9.48c-3.54,-0.8 -6.78,0.24 -7.37,2.42s1.91,5 5.64,6a11,11 0 0 0 2.14,0.37c-3.57,-1.07 -5.96,-3.67 -5.37,-5.9z"/>
  <path id="svg_217" opacity="0.1" d="m466.37,434.96a7.52,7.52 0 0 1 0,-0.82a9.34,9.34 0 0 1 -2.57,-3.55a11.34,11.34 0 0 1 -8.32,-8.59a11.05,11.05 0 0 1 -7.63,-4.74a9.6,9.6 0 0 1 -2.13,-0.06a11.11,11.11 0 0 0 7.35,4.37a11.37,11.37 0 0 0 8.32,8.58a9.55,9.55 0 0 0 2.57,3.55c0,0.27 0,0.55 0,0.83a7.34,7.34 0 0 0 7.17,7.46a7.46,7.46 0 0 1 -4.76,-7.03z"/>
  <ellipse id="svg_218" fill="#fbbebe" transform="rotate(-37.220001220703125 -302.8200073242187,261.95001220703125) " ry="1.75" rx="1.31" cy="846.69001" cx="202.21999"/>
 </g>
</svg>